<?xml version="1.0" standalone="no"?>
<svg baseProfile="full" height="1053.748659075571823" version="1.1" width="1640.799999999999955" xmlns="http://www.w3.org/2000/svg" xmlns:xlinkns="http://www.w3.org/1999/xlink">
 <defs>
  <filter id="drawn20">
   <feTurbulence baseFrequency="0.03" numOctaves="10" result="n1" seed="42" type="fractalNoise" />
   <feTurbulence baseFrequency="0.10" numOctaves="10" result="n2" seed="161" type="fractalNoise" />
   <feComposite in="n1" in2="n2" operator="in" result="n0" />
   <feGaussianBlur in="n0" result="n" stdDeviation="1.000000" />
   <feDisplacementMap in="SourceGraphic" in2="n" scale="2.000000" />
  </filter>
  <filter id="drawn30">
   <feTurbulence baseFrequency="0.03" numOctaves="10" result="n1" seed="42" type="fractalNoise" />
   <feTurbulence baseFrequency="0.10" numOctaves="10" result="n2" seed="161" type="fractalNoise" />
   <feComposite in="n1" in2="n2" operator="in" result="n0" />
   <feGaussianBlur in="n0" result="n" stdDeviation="1.500000" />
   <feDisplacementMap in="SourceGraphic" in2="n" scale="3.000000" />
  </filter>
  <filter id="drawn35">
   <feTurbulence baseFrequency="0.03" numOctaves="10" result="n1" seed="42" type="fractalNoise" />
   <feTurbulence baseFrequency="0.10" numOctaves="10" result="n2" seed="161" type="fractalNoise" />
   <feComposite in="n1" in2="n2" operator="in" result="n0" />
   <feGaussianBlur in="n0" result="n" stdDeviation="1.750000" />
   <feDisplacementMap in="SourceGraphic" in2="n" scale="3.500000" />
  </filter>
  <filter id="drawn8">
   <feTurbulence baseFrequency="0.03" numOctaves="10" result="n1" seed="42" type="fractalNoise" />
   <feTurbulence baseFrequency="0.10" numOctaves="10" result="n2" seed="161" type="fractalNoise" />
   <feComposite in="n1" in2="n2" operator="in" result="n0" />
   <feGaussianBlur in="n0" result="n" stdDeviation="0.400000" />
   <feDisplacementMap in="SourceGraphic" in2="n" scale="0.800000" />
  </filter>
  <filter id="drawn40">
   <feTurbulence baseFrequency="0.03" numOctaves="10" result="n1" seed="42" type="fractalNoise" />
   <feTurbulence baseFrequency="0.10" numOctaves="10" result="n2" seed="161" type="fractalNoise" />
   <feComposite in="n1" in2="n2" operator="in" result="n0" />
   <feGaussianBlur in="n0" result="n" stdDeviation="2.000000" />
   <feDisplacementMap in="SourceGraphic" in2="n" scale="4.000000" />
  </filter>
  <filter id="drawn0">
   <feTurbulence baseFrequency="0.03" numOctaves="10" result="n1" seed="42" type="fractalNoise" />
   <feTurbulence baseFrequency="0.10" numOctaves="10" result="n2" seed="161" type="fractalNoise" />
   <feComposite in="n1" in2="n2" operator="in" result="n0" />
   <feGaussianBlur in="n0" result="n" stdDeviation="0.000000" />
   <feDisplacementMap in="SourceGraphic" in2="n" scale="0.000000" />
  </filter>
 </defs>
 <g>
  <g transform=" translate(834.799999999999955,526.834248040924649)">
   <g transform=" translate(-772,-422)">
    <path d="M33.834,117.8378c-0.9688,0.002-1.8204-0.705-1.9726-1.6932c-0.0822-0.5392-1.9454-13.2656,5.162-21.5508 c3.8458-4.4824,9.502-6.754,16.8144-6.754c0.3946,0,0.7814,0.1172,1.1094,0.336c6.3262,4.2168,11.3516,6.836,16.8106,6.8476h0.08 c1.1036,0,1.9982,0.8946,2,1.998c0.002,1.1036-0.8924,2-1.996,2.002c-0.002,0-0.002,0-0.004,0H71.832 c-0.0214-0.002-0.0508-0.002-0.0762,0h-0.168c-0.0292,0-0.0604,0-0.0898-0.002c-6.1972-0.0838-11.6328-2.8046-18.2538-7.1756 c-5.793,0.1132-10.2208,1.9082-13.172,5.3378c-5.912,6.873-4.2754,18.2402-4.2578,18.3554c0.166,1.09-0.584,2.1094-1.6758,2.2774 C34.0372,117.832,33.9356,117.8378,33.834,117.8378z" fill="#222" filter="url(#drawn0)" shape-rendering="geometricPrecision" stroke="none" stroke-linecap="round" stroke-linejoin="round" stroke-width="0" />
    <path d="M67.9922,110.5664c-0.588,0-1.168-0.2558-1.5626-0.75l-14.5292-18.1426c-0.6914-0.8612-0.5528-2.121,0.3106-2.8106 c0.8652-0.6972,2.123-0.5506,2.8104,0.3106l14.5294,18.1426c0.6914,0.8614,0.5528,2.1212-0.3106,2.8106 C68.871,110.4238,68.4296,110.5664,67.9922,110.5664z" fill="#222" filter="url(#drawn0)" shape-rendering="geometricPrecision" stroke="none" stroke-linecap="round" stroke-linejoin="round" stroke-width="0" />
    <path d="M66.0136,114.711c-0.1484,0-0.2988-0.0156-0.451-0.0508l-9.795-2.254c-0.5372-0.123-0.998-0.4628-1.2774-0.9394 c-0.2774-0.4746-0.3476-1.045-0.1934-1.5722l0.916-3.1212h-6.4746c-0.5018,0-0.9842-0.1894-1.3534-0.5274 c-2.8086-2.5838-3.2402-5.291-3.1074-7.1092c0.4258-5.8536,6.918-10.4454,7.6562-10.9492c0.9102-0.6232,2.1524-0.3868,2.7754,0.5234 c0.623,0.91,0.3906,2.1542-0.5196,2.7792c-1.5664,1.0762-5.6854,4.6016-5.9238,7.9434c-0.084,1.1836,0.3418,2.2812,1.3008,3.3398 h8.3184c0.6308,0,1.2226,0.297,1.6016,0.8008c0.3768,0.5058,0.494,1.1582,0.3182,1.7618l-1.0702,3.6484l7.7266,1.7774 c1.0762,0.248,1.748,1.3202,1.5,2.3984C67.748,114.084,66.9238,114.711,66.0136,114.711z" fill="#222" filter="url(#drawn0)" shape-rendering="geometricPrecision" stroke="none" stroke-linecap="round" stroke-linejoin="round" stroke-width="0" />
    <path d="m 70.2934,119.545 h 49.98 l 13.9,-32.7 h -49.98 zM0.000000,0.000000M144.000000,144.000000" fill="none" filter="url(#drawn40)" shape-rendering="geometricPrecision" stroke="#222" stroke-linecap="round" stroke-linejoin="round" stroke-width="4.000000" />
    <path d="m 48.353402,119.544998 l 21.940002,0M0.000000,0.000000M144.000000,144.000000" fill="none" filter="url(#drawn40)" shape-rendering="geometricPrecision" stroke="#222" stroke-linecap="round" stroke-linejoin="round" stroke-width="4.000000" />
    <path d="M83.9058,54.0936c0,2.2092-1.7908,4-4,4s-4-1.7908-4-4s1.7908-4,4-4C82.1146,50.0944,83.905,51.8848,83.9058,54.0936" fill="#222" filter="url(#drawn0)" shape-rendering="geometricPrecision" stroke="none" stroke-linecap="round" stroke-linejoin="round" stroke-width="0" />
    <path d="M67.9058,54.0936c0,2.2092-1.7908,4-4,4s-4-1.7908-4-4s1.7908-4,4-4C66.1146,50.0944,67.905,51.8848,67.9058,54.0936" fill="#222" filter="url(#drawn0)" shape-rendering="geometricPrecision" stroke="none" stroke-linecap="round" stroke-linejoin="round" stroke-width="0" />
    <path d="M71.9054,74.0984c-2.401-0.0232-4.7626-0.611-6.8944-1.7158c-0.988-0.494-1.3886-1.6954-0.8946-2.6836 c0.494-0.9882,1.6954-1.3886,2.6836-0.8946c3.1868,1.7186,7.0242,1.7186,10.211,0c0.988-0.494,2.1894-0.0936,2.6836,0.8946 s0.0936,2.1894-0.8946,2.6836C76.6682,73.4874,74.3064,74.0752,71.9054,74.0984z" fill="#222" filter="url(#drawn0)" shape-rendering="geometricPrecision" stroke="none" stroke-linecap="round" stroke-linejoin="round" stroke-width="0" />
    <path d="M52,73.1616c-8,0-8-12-8-26 s8-28,28-28s28,14,28,28s0,26-8,26M0.000000,0.000000M144.000000,144.000000" fill="none" filter="url(#drawn40)" shape-rendering="geometricPrecision" stroke="#222" stroke-linecap="round" stroke-linejoin="round" stroke-width="4.000000" />
    <path d="M49.873,57.1616c0,18,9.873,28,22,28 c11.873,0,22.127-10,22.127-28c0.049-3.4374-0.6328-6.8458-2-10c-6-6-14-16-14-16c-8,6-14,12-26,14.001 C52,45.1616,49.873,47.16,49.873,57.1616zM0.000000,0.000000M144.000000,144.000000" fill="none" filter="url(#drawn40)" shape-rendering="geometricPrecision" stroke="#222" stroke-linecap="round" stroke-linejoin="round" stroke-width="4.000000" />
    <path d="M82.9414,65.336h-4.0156c-3.0958,0-5.7656-1.8516-6.963-4.506c-1.1952,2.6544-3.867,4.506-6.9608,4.506h-4.0156 c-4.209,0-7.6328-3.4238-7.6328-7.6328v-2.4756h-1.3848c-1.1056,0-2-0.8956-2-2c0-1.1046,0.8944-2,2-2h3.3848 c1.1054,0,2,0.8954,2,2v4.4756c0,2.0038,1.6288,3.6328,3.6328,3.6328h4.0156c2.002,0,3.6308-1.629,3.6308-3.6328v-2.208 c0-1.1046,0.8946-2,2-2h2.6602c1.1054,0,2,0.8954,2,2v2.208c0,2.0038,1.6288,3.6328,3.6328,3.6328h4.0156 c2.002,0,3.6308-1.629,3.6308-3.6328v-4.4756c0-1.1046,0.8946-2,2-2h2.3146c1.1054,0,2,0.8954,2,2c0,1.1044-0.8946,2-2,2h-0.3146 v2.4756C90.5722,61.9122,87.1484,65.336,82.9414,65.336z" fill="#222" filter="url(#drawn0)" shape-rendering="geometricPrecision" stroke="none" stroke-linecap="round" stroke-linejoin="round" stroke-width="0" />
    <g transform=" translate(72,147.599999999999994)">
     <text fill="#222" filter="url(#drawn8)" font-family="DejaVu Sans Mono" font-size="30" shape-rendering="geometricPrecision" stroke="#222" stroke-linecap="round" stroke-linejoin="round" stroke-width="0.800000" text-anchor="middle" text-rendering="geometricPrecision">
<tspan x="0" y="11.25"><tspan>Alice</tspan></tspan>     </text>
    </g>
   </g>
   <g transform=" translate(-72,-422)">
    <path d="M92,77.9308c8,0,8-12,8-26s-8-28-28-28-28,14-28,28,0,26,8,26M0.000000,0.000000M144.000000,144.000000" fill="none" filter="url(#drawn40)" shape-rendering="geometricPrecision" stroke="#222" stroke-linecap="round" stroke-linejoin="round" stroke-width="4.000000" />
    <path d="M83.746,59.9308a4,4,0,1,1-4-4,4,4,0,0,1,4,4" fill="#222" filter="url(#drawn0)" shape-rendering="geometricPrecision" stroke="none" stroke-linecap="round" stroke-linejoin="round" stroke-width="0" />
    <path d="M67.746,59.9308a4,4,0,1,1-4-4,4,4,0,0,1,4,4" fill="#222" filter="url(#drawn0)" shape-rendering="geometricPrecision" stroke="none" stroke-linecap="round" stroke-linejoin="round" stroke-width="0" />
    <path d="M49.873,61.9308c0,18,9.873,28,22,28,11.873,0,22.127-10,22.127-28a24.2664,24.2664,0,0,0-1-10c-6-6-14-16-14-16-8,6-14,12-26,14C52,49.9308,49.873,51.9308,49.873,61.9308ZM0.000000,0.000000M144.000000,144.000000" fill="none" filter="url(#drawn40)" shape-rendering="geometricPrecision" stroke="#222" stroke-linecap="round" stroke-linejoin="round" stroke-width="4.000000" />
    <path d="M68.168,75.9308a23,23,0,0,0,7.873,0M0.000000,0.000000M144.000000,144.000000" fill="none" filter="url(#drawn40)" shape-rendering="geometricPrecision" stroke="#222" stroke-linecap="round" stroke-linejoin="round" stroke-width="4.000000" />
    <path d="M27.9356,119.9308,33.8106,97.32l-1.875-2.5-8-6-8-12a2.8284,2.8284,0,0,1,4-4l8,8c2,2,4,2,10,4s6.2616,6.4746,6,10c-1.332,17.9454-2,25.1114-2,25.1114M0.000000,0.000000M144.000000,144.000000" fill="none" filter="url(#drawn40)" shape-rendering="geometricPrecision" stroke="#222" stroke-linecap="round" stroke-linejoin="round" stroke-width="4.000000" />
    <path d="M39.9824,85.71s-2.0468-5.78-4.2344-11.78c-0.8632-2.3632-3.8124-2.0624-3.8124-0.332v7.38M0.000000,0.000000M144.000000,144.000000" fill="none" filter="url(#drawn40)" shape-rendering="geometricPrecision" stroke="#222" stroke-linecap="round" stroke-linejoin="round" stroke-width="4.000000" />
    <path d="M116.0644,119.9308,110.1894,97.32l1.875-2.5,8-6,8-12a2.8284,2.8284,0,0,0-4-4l-8,8c-2,2-4,2-10,4s-6.2616,6.4746-6,10c1.334,17.9454,2,25.1114,2,25.1114M0.000000,0.000000M144.000000,144.000000" fill="none" filter="url(#drawn40)" shape-rendering="geometricPrecision" stroke="#222" stroke-linecap="round" stroke-linejoin="round" stroke-width="4.000000" />
    <path d="M104.02,85.71s2.0448-5.78,4.2324-11.78c0.8612-2.3632,3.8124-2.0624,3.8124-0.332v7.38M0.000000,0.000000M144.000000,144.000000" fill="none" filter="url(#drawn40)" shape-rendering="geometricPrecision" stroke="#222" stroke-linecap="round" stroke-linejoin="round" stroke-width="4.000000" />
    <path d="m 46,79.930802 6,-2M0.000000,0.000000M144.000000,144.000000" fill="none" filter="url(#drawn40)" shape-rendering="geometricPrecision" stroke="#222" stroke-linecap="round" stroke-linejoin="round" stroke-width="4.000000" />
    <path d="m 92,77.930802 6.888604,2M0.000000,0.000000M144.000000,144.000000" fill="none" filter="url(#drawn40)" shape-rendering="geometricPrecision" stroke="#222" stroke-linecap="round" stroke-linejoin="round" stroke-width="4.000000" />
    <g transform=" translate(72,147.599999999999994)">
     <text fill="#222" filter="url(#drawn8)" font-family="DejaVu Sans Mono" font-size="30" shape-rendering="geometricPrecision" stroke="#222" stroke-linecap="round" stroke-linejoin="round" stroke-width="0.800000" text-anchor="middle" text-rendering="geometricPrecision">
<tspan x="0" y="11.25"><tspan>Eve</tspan></tspan>     </text>
    </g>
   </g>
   <g transform=" translate(-72,-407.600000000000023)">
    <path d="M0,0 M288,288" fill="#222" filter="url(#drawn0)" shape-rendering="geometricPrecision" stroke="none" stroke-linecap="round" stroke-linejoin="round" stroke-width="0" />
    <g transform=" translate(72,-10.800000000000001)">
     <text fill="#222" filter="url(#drawn30)" font-family="DejaVu Sans Mono" font-size="30" shape-rendering="geometricPrecision" stroke="#222" stroke-linecap="round" stroke-linejoin="round" stroke-width="3.000000" text-anchor="middle" text-rendering="geometricPrecision">
<tspan x="0" y="11.25"><tspan>???</tspan></tspan>     </text>
    </g>
   </g>
   <g transform=" translate(628,278)">
    <path d="m 49.301602,90.944198 6.977996,26.849602" fill="#222" filter="url(#drawn0)" shape-rendering="geometricPrecision" stroke="none" stroke-linecap="round" stroke-linejoin="round" stroke-width="0" />
    <path d="M109.6132,117.7754c-0.1014,0-0.203-0.0058-0.3046-0.0214c-1.0918-0.168-1.8418-1.1876-1.6758-2.2774 c0.0176-0.1152,1.6544-11.4824-4.2578-18.3556c-2.9512-3.4296-7.379-5.2246-13.1718-5.3378 c-6.6192,4.3692-12.0548,7.0898-18.252,7.1758c-0.043,0.0038-0.088,0.002-0.129,0.002c-0.0156,0-0.0272,0-0.043,0h-0.0916 c-0.0274-0.002-0.0548,0-0.0822,0c-0.0292,0-0.0586,0-0.0878-0.002c-6.2012-0.086-11.6348-2.8066-18.252-7.1758 c-5.793,0.1132-10.2206,1.9082-13.1718,5.3378c-5.9122,6.8732-4.2754,18.2404-4.2578,18.3556c0.166,1.0898-0.584,2.1094-1.6758,2.2774 c-1.0704,0.166-2.1094-0.5802-2.2774-1.672c-0.082-0.539-1.9452-13.2656,5.1622-21.5508c3.8456-4.4824,9.5018-6.7538,16.8144-6.7538 c0.3946,0,0.7812,0.1172,1.1094,0.3358c6.3046,4.2032,11.3184,6.8184,16.7656,6.8478c5.4452-0.0274,10.459-2.6426,16.7656-6.8478 c0.3282-0.2186,0.7148-0.3358,1.1094-0.3358c7.3124,0,12.9688,2.2714,16.8144,6.7538c7.1074,8.2852,5.2442,21.0118,5.1622,21.5508 C111.4336,117.0704,110.582,117.7754,109.6132,117.7754z" fill="#222" filter="url(#drawn0)" shape-rendering="geometricPrecision" stroke="none" stroke-linecap="round" stroke-linejoin="round" stroke-width="0" />
    <path d="M67.5312,117.7774c-0.666,0-1.3164-0.332-1.6952-0.9376c-3.6622-5.832-9.0314-15.127-13.8146-26.2734 c-0.4354-1.0156,0.0352-2.1914,1.049-2.627c1.0136-0.4394,2.1914,0.0332,2.6268,1.0488 c4.6818,10.9102,9.9396,20.0118,13.5254,25.7266c0.588,0.9356,0.3048,2.17-0.6308,2.756 C68.2618,117.6778,67.8946,117.7774,67.5312,117.7774z" fill="#222" filter="url(#drawn0)" shape-rendering="geometricPrecision" stroke="none" stroke-linecap="round" stroke-linejoin="round" stroke-width="0" />
    <path d="M76.4258,117.7774c-0.3632,0-0.7304-0.0996-1.0606-0.3066c-0.9356-0.586-1.2188-1.8204-0.6308-2.756 c3.586-5.7148,8.8438-14.8164,13.5254-25.7266c0.4336-1.0156,1.6132-1.4862,2.627-1.0488c1.0136,0.4356,1.4842,1.6114,1.0488,2.627 c-4.7832,11.1464-10.1524,20.4414-13.8146,26.2734C77.7422,117.4454,77.0918,117.7774,76.4258,117.7774z" fill="#222" filter="url(#drawn0)" shape-rendering="geometricPrecision" stroke="none" stroke-linecap="round" stroke-linejoin="round" stroke-width="0" />
    <path d="M45.209,117.7774c-1.1054,0-2-0.8946-2-2V91.2304c0-1.1054,0.8946-2,2-2s2,0.8946,2,2v24.547 C47.209,116.8828,46.3144,117.7774,45.209,117.7774z" fill="#222" filter="url(#drawn0)" shape-rendering="geometricPrecision" stroke="none" stroke-linecap="round" stroke-linejoin="round" stroke-width="0" />
    <path d="M98.291,117.7774c-1.1054,0-2-0.8946-2-2V91.2304c0-1.1054,0.8946-2,2-2s2,0.8946,2,2v24.547 C100.291,116.8828,99.3964,117.7774,98.291,117.7774z" fill="#222" filter="url(#drawn0)" shape-rendering="geometricPrecision" stroke="none" stroke-linecap="round" stroke-linejoin="round" stroke-width="0" />
    <path d="M79.9738,50.0642c2.22,0,4,1.8,4,4c0,2.22-1.78,4-4,4c-2.2,0-4-1.78-4-4C75.9738,51.8642,77.7738,50.0642,79.9738,50.0642z" fill="#222" filter="url(#drawn0)" shape-rendering="geometricPrecision" stroke="none" stroke-linecap="round" stroke-linejoin="round" stroke-width="0" />
    <path d="M79.7738,69.6842c0.48,0.98,0.08,2.18-0.9,2.68c-2.28,1.14-4.6,1.72-6.9,1.72s-4.6-0.58-6.88-1.72 c-1-0.5-1.4-1.7-0.9-2.68c0.48-1,1.68-1.4,2.68-0.9c3.44,1.72,6.78,1.72,10.22,0 C78.0738,68.2842,79.2738,68.6842,79.7738,69.6842z" fill="#222" filter="url(#drawn0)" shape-rendering="geometricPrecision" stroke="none" stroke-linecap="round" stroke-linejoin="round" stroke-width="0" />
    <path d="M63.9738,50.0642c2.22,0,4,1.8,4,4c0,2.22-1.78,4-4,4c-2.2,0-4-1.78-4-4C59.9738,51.8642,61.7738,50.0642,63.9738,50.0642z" fill="#222" filter="url(#drawn0)" shape-rendering="geometricPrecision" stroke="none" stroke-linecap="round" stroke-linejoin="round" stroke-width="0" />
    <path d="M52.6538,41.9842c-0.94,1.9-1.7,3.96-2.26,6.14 c-0.72,2.72-1.1,5.64-1.1,8.66c0,15.66,10.16,28.36,22.68,28.36s22.68-12.7,22.68-28.36c0-2.3-0.22-4.56-0.64-6.72 c-0.12-0.66-0.28-1.32-0.44-1.96c-0.56-2.16-1.32-4.22-2.26-6.12M0.000000,0.000000M144.000000,144.000000" fill="none" filter="url(#drawn40)" shape-rendering="geometricPrecision" stroke="#222" stroke-linecap="round" stroke-linejoin="round" stroke-width="4.000000" />
    <path d="M52.6538,41.9842c-1.18,0.34-2.24,0.7-3.18,1.06c-3.48,1.28-5.3,2.44-5.3,2.44M0.000000,0.000000M144.000000,144.000000" fill="none" filter="url(#drawn40)" shape-rendering="geometricPrecision" stroke="#222" stroke-linecap="round" stroke-linejoin="round" stroke-width="4.000000" />
    <path d="m 52.6538,41.9642 v 0.02M0.000000,0.000000M144.000000,144.000000" fill="none" filter="url(#drawn40)" shape-rendering="geometricPrecision" stroke="#222" stroke-linecap="round" stroke-linejoin="round" stroke-width="4.000000" />
    <path d="M99.7738,45.4842c0,0-2.06-1.32-6-2.72c-0.76-0.26-1.58-0.52-2.46-0.78c-4.22-1.24-9.98-2.32-17.12-2.32 c-0.68,0-1.36,0.02-2.06,0.04h-0.32c-0.06,0-0.12-0.02-0.16,0c-8.04-0.22-14.42,0.94-19,2.26M0.000000,0.000000M144.000000,144.000000" fill="none" filter="url(#drawn40)" shape-rendering="geometricPrecision" stroke="#222" stroke-linecap="round" stroke-linejoin="round" stroke-width="4.000000" />
    <path d="M80.0938,22.6042v-0.16c-1.26-4.14-12.82-5.62-16,0l-0.12,12.08h10.22h5.78L80.0938,22.6042zM0.000000,0.000000M144.000000,144.000000" fill="none" filter="url(#drawn40)" shape-rendering="geometricPrecision" stroke="#222" stroke-linecap="round" stroke-linejoin="round" stroke-width="4.000000" />
    <path d="M49.2938,42.5642c0,0,0.1-18.4,14.8-20.12M0.000000,0.000000M144.000000,144.000000" fill="none" filter="url(#drawn40)" shape-rendering="geometricPrecision" stroke="#222" stroke-linecap="round" stroke-linejoin="round" stroke-width="4.000000" />
    <path d="M93.8538,42.5642c0,0-0.08-17.54-13.76-19.96 c-0.32-0.06-0.68-0.12-1.02-0.16M0.000000,0.000000M144.000000,144.000000" fill="none" filter="url(#drawn40)" shape-rendering="geometricPrecision" stroke="#222" stroke-linecap="round" stroke-linejoin="round" stroke-width="4.000000" />
    <path d="M72.1338,39.7042 c0,0-0.08,0.08-0.24,0.22c-1.84,1.58-13.74,11.46-20.44,8.62l-1.06-0.42h-0.02M0.000000,0.000000M144.000000,144.000000" fill="none" filter="url(#drawn40)" shape-rendering="geometricPrecision" stroke="#222" stroke-linecap="round" stroke-linejoin="round" stroke-width="4.000000" />
    <path d="M71.6538,39.7042 c0,0,0.08,0.08,0.24,0.22c1.84,1.58,13.74,11.46,20.44,8.62l1.24-0.44M0.000000,0.000000M144.000000,144.000000" fill="none" filter="url(#drawn40)" shape-rendering="geometricPrecision" stroke="#222" stroke-linecap="round" stroke-linejoin="round" stroke-width="4.000000" />
    <g transform=" translate(72,147.599999999999994)">
     <text fill="#222" filter="url(#drawn8)" font-family="DejaVu Sans Mono" font-size="30" shape-rendering="geometricPrecision" stroke="#222" stroke-linecap="round" stroke-linejoin="round" stroke-width="0.800000" text-anchor="middle" text-rendering="geometricPrecision">
<tspan x="0" y="11.25"><tspan>Bob</tspan></tspan>     </text>
    </g>
   </g>
   <g transform=" translate(628,292.399999999999977)">
    <path d="M0,0 M288,288" fill="#222" filter="url(#drawn0)" shape-rendering="geometricPrecision" stroke="none" stroke-linecap="round" stroke-linejoin="round" stroke-width="0" />
    <g transform=" translate(72,-10.800000000000001)">
     <text fill="#222" filter="url(#drawn30)" font-family="DejaVu Sans Mono" font-size="30" shape-rendering="geometricPrecision" stroke="#222" stroke-linecap="round" stroke-linejoin="round" stroke-width="3.000000" text-anchor="middle" text-rendering="geometricPrecision">
<tspan x="0" y="11.25"><tspan>!!!</tspan></tspan>     </text>
    </g>
   </g>
   <g transform=" translate(-1.293308155139158,1.063533323476321)">
    <path d="M 199.966402929776223,2.749310071834082 Q 232.003316212917667,35.113324724413346 183.538523081524659,59.593673586984991 Q 200.662873075617085,110.421319608565312 133.129757121635578,111.939774521449948 Q 118.408533923072241,153.212928163601163 62.127830475766906,142.579187235411695 Q 6.002436948619158,185.517513074155005 -36.824288755950775,147.435525276848807 Q -84.219028434444112,145.960717808013356 -115.8575782982996,122.26845309545314 Q -152.7689788464522,118.160664663847413 -166.03704583121015,83.623148224938873 Q -227.675458937373065,66.582285314129265 -197.369981342038159,24.245894221227971 Q -234.561812348523461,8.343430029822166 -197.379786619497906,-24.200953630969227 Q -215.631455333208919,-78.285984490314462 -157.966027875533285,-91.998847253320292 Q -161.858993736411918,-117.71373893683959 -111.496472245910525,-124.528317585412111 Q -67.700151351153238,-172.779065520018605 -15.262508722541334,-149.562591923801477 Q 30.960470191604049,-172.833173677484922 67.261083321870842,-141.26294631672593 Q 120.666437818516343,-158.682185084049223 133.038336742857183,-112.000895255977539 Q 188.508842549457228,-100.30123335623469 183.615652614062611,-59.459875670492558 Q 253.197052304051567,-36.739692385499907 199.966402929776223,2.749310071834082 z" fill="none" filter="url(#drawn20)" shape-rendering="geometricPrecision" stroke="#222" stroke-linecap="round" stroke-linejoin="round" stroke-width="2.000000" transform="" />
    <text fill="#222" filter="url(#drawn35)" font-family="DejaVu Sans Mono" font-size="35" shape-rendering="geometricPrecision" stroke="#222" stroke-linecap="round" stroke-linejoin="round" stroke-width="3.500000" text-anchor="middle" text-rendering="geometricPrecision">
<tspan x="0" y="-8.75"><tspan>ungesichertes</tspan></tspan><tspan x="0" y="35"><tspan>Internet</tspan></tspan>    </text>
   </g>
   <g transform=" translate(-555,-183.619145349616616)">
    <path d="M 0,0 C 31.511373188433776,0.483429224861541 41.27193576755365,-0.031560327335138 90.39835202497747,0.453393390541221 C 149.259262240051868,3.275712996347544 166.161891183379936,-0.219920362133158 210,0 C 211.024444787773604,-41.836065747438866 209.457035407996955,-45.413173581004912 209.371407625630781,-94.032930095034786 C 211.298165385474192,-163.247604909234298 210.118927841842009,-217.26995445967512 210,-257 C 206.144264352585367,-261.484741966060767 204.702602063323212,-262.368522268104471 187.300271674087924,-279.846480812530956 C 180.658798611181737,-286.361052011530433 175.901076200196997,-291.118329138261345 170,-297 C 154.767676233610757,-296.179319719072623 148.549955864036207,-297.327763998826924 127.458039091849102,-297.215102691308005 C 84.77855156113047,-298.396623204395212 63.906805587525795,-297.127774724024505 0,-297 C 0.648981617892644,-272.3458912054287 -0.560770083435261,-262.109270828622357 0.098963099347095,-249.118846723206786 C -1.216728992354175,-216.463566703428171 -0.898448695452303,-134.544769935026068 0,0" fill="#eee" shape-rendering="geometricPrecision" stroke="none" />
    <g transform=" translate(17.920000000000002,-267.295102691307989)">
     <text fill="#222" filter="url(#drawn20)" font-family="DejaVu Sans Mono" font-size="20" shape-rendering="geometricPrecision" stroke="#222" stroke-linecap="round" stroke-linejoin="round" stroke-width="2.000000" text-anchor="start" text-rendering="geometricPrecision">
<tspan x="0" y="7.5"><tspan>Hi Bob,</tspan></tspan>     </text>
     <g transform=" translate(0,120)">
      <text fill="#222" filter="url(#drawn20)" font-family="DejaVu Sans Mono" font-size="20" shape-rendering="geometricPrecision" stroke="#222" stroke-linecap="round" stroke-linejoin="round" stroke-width="2.000000" text-anchor="start" text-rendering="geometricPrecision">
<tspan x="0" y="-67.5"><tspan>ich schreibe D</tspan></tspan><tspan x="0" y="-42.5"><tspan>ir um mitzutei</tspan></tspan><tspan x="0" y="-17.5"><tspan>len, dass wir </tspan></tspan><tspan x="0" y="7.5"><tspan>das Gruppentre</tspan></tspan><tspan x="0" y="32.5"><tspan>ffen auf Überm</tspan></tspan><tspan x="0" y="57.5"><tspan>orgen verschob</tspan></tspan><tspan x="0" y="82.5"><tspan>en haben.</tspan></tspan>      </text>
     </g>
     <g transform=" translate(0,240)">
      <text fill="#222" filter="url(#drawn20)" font-family="DejaVu Sans Mono" font-size="20" shape-rendering="geometricPrecision" stroke="#222" stroke-linecap="round" stroke-linejoin="round" stroke-width="2.000000" text-anchor="start" text-rendering="geometricPrecision">
<tspan x="0" y="7.5"><tspan>Gruß, Alice</tspan></tspan>      </text>
     </g>
    </g>
    <path d="M 210,-257 C 208.45785906863793,-256.941749995363466 205.19434831064828,-257.031552041221119 203.494694558898601,-256.97063678743973 C 193.471835479565783,-257.507117293584201 176.551247383536435,-257.107247452311128 170,-257 C 169.804473564516144,-260.718212833055134 170.000087203345856,-262.548964989102501 170.036057413144022,-264.618287473696682 C 169.996679986933827,-268.865828699641497 170.762313238870576,-283.848516163083559 170,-297" fill="#eee" shape-rendering="geometricPrecision" stroke="none" />
    <path d="M 0,0 C 31.511373188433776,0.483429224861541 41.27193576755365,-0.031560327335138 90.39835202497747,0.453393390541221 C 149.259262240051868,3.275712996347544 166.161891183379936,-0.219920362133158 210,0 C 211.024444787773604,-41.836065747438866 209.457035407996955,-45.413173581004912 209.371407625630781,-94.032930095034786 C 211.298165385474192,-163.247604909234298 210.118927841842009,-217.26995445967512 210,-257 C 206.144264352585367,-261.484741966060767 204.702602063323212,-262.368522268104471 187.300271674087924,-279.846480812530956 C 180.658798611181737,-286.361052011530433 175.901076200196997,-291.118329138261345 170,-297 C 154.767676233610757,-296.179319719072623 148.549955864036207,-297.327763998826924 127.458039091849102,-297.215102691308005 C 84.77855156113047,-298.396623204395212 63.906805587525795,-297.127774724024505 0,-297 C 0.648981617892644,-272.3458912054287 -0.560770083435261,-262.109270828622357 0.098963099347095,-249.118846723206786 C -1.216728992354175,-216.463566703428171 -0.898448695452303,-134.544769935026068 0,0" fill="none" filter="url(#drawn20)" shape-rendering="geometricPrecision" stroke="#222" stroke-linecap="round" stroke-linejoin="round" stroke-width="2.000000" />
    <path d="M 210,-257 C 208.45785906863793,-256.941749995363466 205.19434831064828,-257.031552041221119 203.494694558898601,-256.97063678743973 C 193.471835479565783,-257.507117293584201 176.551247383536435,-257.107247452311128 170,-257 C 169.804473564516144,-260.718212833055134 170.000087203345856,-262.548964989102501 170.036057413144022,-264.618287473696682 C 169.996679986933827,-268.865828699641497 170.762313238870576,-283.848516163083559 170,-297" fill="none" filter="url(#drawn20)" shape-rendering="geometricPrecision" stroke="#222" stroke-linecap="round" stroke-linejoin="round" stroke-width="2.000000" />
    <g transform=" translate(105,-315.215102691308005)">
     <text fill="#222" filter="url(#drawn30)" font-family="DejaVu Sans Mono" font-size="30" shape-rendering="geometricPrecision" stroke="#222" stroke-linecap="round" stroke-linejoin="round" stroke-width="3.000000" text-anchor="middle" text-rendering="geometricPrecision">
<tspan x="0" y="11.25"><tspan>Klartext</tspan></tspan>     </text>
    </g>
   </g>
   <g transform=" translate(345.145484451660309,516.5)">
    <path d="M 0,0 C 23.165553140739597,-0.698134400763057 42.117002498299108,0.928015246244257 88.795153497290656,-0.364202739389772 C 104.816961353150504,-1.115071930819257 132.618038801750942,1.232409618311907 210,0 C 211.000940383614477,-27.653388224806051 211.032714935948462,-50.015586894482084 209.855369252934679,-68.779071079455775 C 213.826881391679251,-158.453639836153826 208.995647234714454,-188.109101341916585 210,-257 C 206.735038366625474,-260.499135683288671 204.896828806567157,-262.261757003853461 200.583683038975352,-266.442928851805107 C 191.68212465126436,-274.758410103561062 179.759198702956098,-287.515752622850584 170,-297 C 131.952167866742371,-297.365409235620518 116.125133047300622,-295.63872641657855 78.148369703999435,-296.312819337816904 C 55.19441325224166,-297.086528458965859 49.67608423274342,-296.848819799283319 0,-297 C -4.120571409847006,-197.712437733475468 -0.144732759298529,-188.440462376566558 -0.290968903320653,-98.255916651816648 C -1.217862684965609,-76.227441034771246 -0.204369805612054,-60.595953455997815 0,0" fill="#eee" shape-rendering="geometricPrecision" stroke="none" />
    <g transform=" translate(17.629031096679348,-267.079999999999984)">
     <text fill="#222" filter="url(#drawn20)" font-family="DejaVu Sans Mono" font-size="20" shape-rendering="geometricPrecision" stroke="#222" stroke-linecap="round" stroke-linejoin="round" stroke-width="2.000000" text-anchor="start" text-rendering="geometricPrecision">
<tspan x="0" y="7.5"><tspan>Hi Bob,</tspan></tspan>     </text>
     <g transform=" translate(0,120)">
      <text fill="#222" filter="url(#drawn20)" font-family="DejaVu Sans Mono" font-size="20" shape-rendering="geometricPrecision" stroke="#222" stroke-linecap="round" stroke-linejoin="round" stroke-width="2.000000" text-anchor="start" text-rendering="geometricPrecision">
<tspan x="0" y="-67.5"><tspan>ich schreibe D</tspan></tspan><tspan x="0" y="-42.5"><tspan>ir um mitzutei</tspan></tspan><tspan x="0" y="-17.5"><tspan>len, dass wir </tspan></tspan><tspan x="0" y="7.5"><tspan>das Gruppentre</tspan></tspan><tspan x="0" y="32.5"><tspan>ffen auf Überm</tspan></tspan><tspan x="0" y="57.5"><tspan>orgen verschob</tspan></tspan><tspan x="0" y="82.5"><tspan>en haben.</tspan></tspan>      </text>
     </g>
     <g transform=" translate(0,240)">
      <text fill="#222" filter="url(#drawn20)" font-family="DejaVu Sans Mono" font-size="20" shape-rendering="geometricPrecision" stroke="#222" stroke-linecap="round" stroke-linejoin="round" stroke-width="2.000000" text-anchor="start" text-rendering="geometricPrecision">
<tspan x="0" y="7.5"><tspan>Gruß, Alice</tspan></tspan>      </text>
     </g>
    </g>
    <path d="M 210,-257 C 206.436888356285465,-257.085056891413728 199.94286956199295,-256.866008858765724 190.248190790050074,-256.886217258458146 C 186.364233681022455,-256.869221558893173 174.750620628192792,-256.651753553926483 170,-257 C 170.330538459121328,-265.531059137844125 170.137609318045207,-268.661268257940094 170.145140967934736,-280.268454553553227 C 170.014897843453383,-282.559075750280158 169.82250105880459,-289.010408278614875 170,-297" fill="#eee" shape-rendering="geometricPrecision" stroke="none" />
    <path d="M 0,0 C 23.165553140739597,-0.698134400763057 42.117002498299108,0.928015246244257 88.795153497290656,-0.364202739389772 C 104.816961353150504,-1.115071930819257 132.618038801750942,1.232409618311907 210,0 C 211.000940383614477,-27.653388224806051 211.032714935948462,-50.015586894482084 209.855369252934679,-68.779071079455775 C 213.826881391679251,-158.453639836153826 208.995647234714454,-188.109101341916585 210,-257 C 206.735038366625474,-260.499135683288671 204.896828806567157,-262.261757003853461 200.583683038975352,-266.442928851805107 C 191.68212465126436,-274.758410103561062 179.759198702956098,-287.515752622850584 170,-297 C 131.952167866742371,-297.365409235620518 116.125133047300622,-295.63872641657855 78.148369703999435,-296.312819337816904 C 55.19441325224166,-297.086528458965859 49.67608423274342,-296.848819799283319 0,-297 C -4.120571409847006,-197.712437733475468 -0.144732759298529,-188.440462376566558 -0.290968903320653,-98.255916651816648 C -1.217862684965609,-76.227441034771246 -0.204369805612054,-60.595953455997815 0,0" fill="none" filter="url(#drawn20)" shape-rendering="geometricPrecision" stroke="#222" stroke-linecap="round" stroke-linejoin="round" stroke-width="2.000000" />
    <path d="M 210,-257 C 206.436888356285465,-257.085056891413728 199.94286956199295,-256.866008858765724 190.248190790050074,-256.886217258458146 C 186.364233681022455,-256.869221558893173 174.750620628192792,-256.651753553926483 170,-257 C 170.330538459121328,-265.531059137844125 170.137609318045207,-268.661268257940094 170.145140967934736,-280.268454553553227 C 170.014897843453383,-282.559075750280158 169.82250105880459,-289.010408278614875 170,-297" fill="none" filter="url(#drawn20)" shape-rendering="geometricPrecision" stroke="#222" stroke-linecap="round" stroke-linejoin="round" stroke-width="2.000000" />
    <g transform=" translate(104.854515548339677,-315)">
     <text fill="#222" filter="url(#drawn30)" font-family="DejaVu Sans Mono" font-size="30" shape-rendering="geometricPrecision" stroke="#222" stroke-linecap="round" stroke-linejoin="round" stroke-width="3.000000" text-anchor="middle" text-rendering="geometricPrecision">
<tspan x="0" y="11.25"><tspan>Klartext</tspan></tspan>     </text>
    </g>
   </g>
   <g transform=" translate(-555,516.459450779677354)">
    <path d="M 0,0 C 29.638089812500088,1.703152952484922 96.762279728063575,0.660450375869303 147.97284653052813,0.454960254969775 C 162.278788379042055,1.047270781781087 188.958531737206528,1.73939968400918 210,0 C 211.943239066346536,-39.035006678830385 211.175015254717778,-64.469726100360646 209.828267689027115,-131.601394421337801 C 208.759418232642389,-164.150992199663392 208.419381011586353,-195.547402040858373 210,-257 C 207.611474390150448,-259.376439634988287 202.489724951742858,-265.006921139672443 196.548641353533867,-270.512801035795803 C 192.392632549889868,-274.294494558992426 180.447942831289737,-285.253390361527295 170,-297 C 132.281966824611686,-294.93740766931262 101.804639248018418,-298.078059005237492 82.106960302263261,-297.373861814324528 C 52.166470844632464,-296.504366448721953 21.004974153656242,-297.553051358396033 0,-297 C -0.315397864493531,-209.247824241214886 0.070146287203658,-198.081294014669538 0.559111562383393,-164.279912719013879 C -0.170097652438064,-102.591939636935138 0.590326896888036,-66.207034410823653 0,0" fill="#eee" shape-rendering="geometricPrecision" stroke="none" />
    <g transform=" translate(17.920000000000002,-279.453861814324512)">
     <g transform=" translate(0,132)">
      <text fill="#222" filter="url(#drawn20)" font-family="DejaVu Sans Mono" font-size="20" shape-rendering="geometricPrecision" stroke="#222" stroke-linecap="round" stroke-linejoin="round" stroke-width="2.000000" text-anchor="start" text-rendering="geometricPrecision">
<tspan x="0" y="-117.5"><tspan>aEkgYk9CLApJQ0</tspan></tspan><tspan x="0" y="-92.5"><tspan>ggU0NIUkVJQkUg</tspan></tspan><tspan x="0" y="-67.5"><tspan>ZElSIFVNIE1JVF</tspan></tspan><tspan x="0" y="-42.5"><tspan>pVVEVJTEVOLCBE</tspan></tspan><tspan x="0" y="-17.5"><tspan>QVNTIFdJUiBEQV</tspan></tspan><tspan x="0" y="7.5"><tspan>MgZ1JVUFBFTlRS</tspan></tspan><tspan x="0" y="32.5"><tspan>RUZGRU4gQVVGI8</tspan></tspan><tspan x="0" y="57.5"><tspan>KcQkVSTU9SR0VO</tspan></tspan><tspan x="0" y="82.5"><tspan>IFZFUlNDSE9CRU</tspan></tspan><tspan x="0" y="107.5"><tspan>4gSEFCRU4uCmdS</tspan></tspan><tspan x="0" y="132.5"><tspan>VMKfLCBhTElDRQ</tspan></tspan>      </text>
     </g>
    </g>
    <path d="M 210,-257 C 203.13770326568681,-256.803608387199745 197.302279671878779,-256.605755932510192 186.883778089243322,-256.837613775766613 C 185.240405843017555,-256.848159137677953 176.48341200643705,-257.078755773312139 170,-257 C 170.304097287229837,-264.400921068238802 170.045882519302069,-265.720829510178817 170.079261987368199,-270.953263602857419 C 169.809492818102598,-281.223698118781272 169.637763716483931,-289.414245573937137 170,-297" fill="#eee" shape-rendering="geometricPrecision" stroke="none" />
    <path d="M 0,0 C 29.638089812500088,1.703152952484922 96.762279728063575,0.660450375869303 147.97284653052813,0.454960254969775 C 162.278788379042055,1.047270781781087 188.958531737206528,1.73939968400918 210,0 C 211.943239066346536,-39.035006678830385 211.175015254717778,-64.469726100360646 209.828267689027115,-131.601394421337801 C 208.759418232642389,-164.150992199663392 208.419381011586353,-195.547402040858373 210,-257 C 207.611474390150448,-259.376439634988287 202.489724951742858,-265.006921139672443 196.548641353533867,-270.512801035795803 C 192.392632549889868,-274.294494558992426 180.447942831289737,-285.253390361527295 170,-297 C 132.281966824611686,-294.93740766931262 101.804639248018418,-298.078059005237492 82.106960302263261,-297.373861814324528 C 52.166470844632464,-296.504366448721953 21.004974153656242,-297.553051358396033 0,-297 C -0.315397864493531,-209.247824241214886 0.070146287203658,-198.081294014669538 0.559111562383393,-164.279912719013879 C -0.170097652438064,-102.591939636935138 0.590326896888036,-66.207034410823653 0,0" fill="none" filter="url(#drawn20)" shape-rendering="geometricPrecision" stroke="#222" stroke-linecap="round" stroke-linejoin="round" stroke-width="2.000000" />
    <path d="M 210,-257 C 203.13770326568681,-256.803608387199745 197.302279671878779,-256.605755932510192 186.883778089243322,-256.837613775766613 C 185.240405843017555,-256.848159137677953 176.48341200643705,-257.078755773312139 170,-257 C 170.304097287229837,-264.400921068238802 170.045882519302069,-265.720829510178817 170.079261987368199,-270.953263602857419 C 169.809492818102598,-281.223698118781272 169.637763716483931,-289.414245573937137 170,-297" fill="none" filter="url(#drawn20)" shape-rendering="geometricPrecision" stroke="#222" stroke-linecap="round" stroke-linejoin="round" stroke-width="2.000000" />
    <g transform=" translate(105,-315.373861814324528)">
     <text fill="#222" filter="url(#drawn30)" font-family="DejaVu Sans Mono" font-size="30" shape-rendering="geometricPrecision" stroke="#222" stroke-linecap="round" stroke-linejoin="round" stroke-width="3.000000" text-anchor="middle" text-rendering="geometricPrecision">
<tspan x="0" y="11.25"><tspan>Krypttext</tspan></tspan>     </text>
    </g>
   </g>
   <g transform=" translate(344.712776628178574,-183.580429325069957)">
    <path d="M 0,0 C 19.141280361593605,0.041074997644482 71.055607069144131,0.580999202021171 162.634419064607414,0.379212559939724 C 182.277246646329786,-0.114238894932753 185.100144171193421,0.11300420479931 210,0 C 209.252715009926845,-35.878986862349315 213.982027744242828,-115.408716466200389 210.574446743642881,-172.314350520640716 C 209.281914165784229,-194.332359321762681 210.274222515318058,-200.712102494012754 210,-257 C 195.410066743526841,-271.177640237702917 192.419122667508958,-274.352432383356813 184.935522336133289,-281.69331951462965 C 177.748411543503153,-288.370773438027982 173.688460774247034,-293.306152397591234 170,-297 C 140.49641495310982,-296.965555089758993 120.834329399333356,-298.297023084871228 103.755221744200114,-297.218353909799816 C 68.326040004987817,-298.122110387895475 46.142585147620899,-297.840387320833372 0,-297 C -0.019611956578,-283.817591340212743 -1.676085891279483,-249.802199417207845 0.26265311374716,-203.228625633986354 C 0.044499158523122,-90.526076162834954 -0.261895433321463,-42.001543537411443 0,0" fill="#eee" shape-rendering="geometricPrecision" stroke="none" />
    <g transform=" translate(17.920000000000002,-279.2983539097998)">
     <g transform=" translate(0,132)">
      <text fill="#222" filter="url(#drawn20)" font-family="DejaVu Sans Mono" font-size="20" shape-rendering="geometricPrecision" stroke="#222" stroke-linecap="round" stroke-linejoin="round" stroke-width="2.000000" text-anchor="start" text-rendering="geometricPrecision">
<tspan x="0" y="-117.5"><tspan>aEkgYk9CLApJQ0</tspan></tspan><tspan x="0" y="-92.5"><tspan>ggU0NIUkVJQkUg</tspan></tspan><tspan x="0" y="-67.5"><tspan>ZElSIFVNIE1JVF</tspan></tspan><tspan x="0" y="-42.5"><tspan>pVVEVJTEVOLCBE</tspan></tspan><tspan x="0" y="-17.5"><tspan>QVNTIFdJUiBEQV</tspan></tspan><tspan x="0" y="7.5"><tspan>MgZ1JVUFBFTlRS</tspan></tspan><tspan x="0" y="32.5"><tspan>RUZGRU4gQVVGI8</tspan></tspan><tspan x="0" y="57.5"><tspan>KcQkVSTU9SR0VO</tspan></tspan><tspan x="0" y="82.5"><tspan>IFZFUlNDSE9CRU</tspan></tspan><tspan x="0" y="107.5"><tspan>4gSEFCRU4uCmdS</tspan></tspan><tspan x="0" y="132.5"><tspan>VMKfLCBhTElDRQ</tspan></tspan>      </text>
     </g>
    </g>
    <path d="M 210,-257 C 205.174461545816001,-257.263559992586636 198.832230697142137,-257.060137274646422 192.466941250421598,-257.08621496988178 C 187.64041745936666,-257.003405350862636 181.844124702329481,-257.379158288868894 170,-257 C 170.021014739218316,-261.7080511420628 170.075357369913291,-265.908363258978056 169.947664079904115,-270.154675824099002 C 169.814843178453458,-275.211623279610876 169.63405593992627,-283.290656010901046 170,-297" fill="#eee" shape-rendering="geometricPrecision" stroke="none" />
    <path d="M 0,0 C 19.141280361593605,0.041074997644482 71.055607069144131,0.580999202021171 162.634419064607414,0.379212559939724 C 182.277246646329786,-0.114238894932753 185.100144171193421,0.11300420479931 210,0 C 209.252715009926845,-35.878986862349315 213.982027744242828,-115.408716466200389 210.574446743642881,-172.314350520640716 C 209.281914165784229,-194.332359321762681 210.274222515318058,-200.712102494012754 210,-257 C 195.410066743526841,-271.177640237702917 192.419122667508958,-274.352432383356813 184.935522336133289,-281.69331951462965 C 177.748411543503153,-288.370773438027982 173.688460774247034,-293.306152397591234 170,-297 C 140.49641495310982,-296.965555089758993 120.834329399333356,-298.297023084871228 103.755221744200114,-297.218353909799816 C 68.326040004987817,-298.122110387895475 46.142585147620899,-297.840387320833372 0,-297 C -0.019611956578,-283.817591340212743 -1.676085891279483,-249.802199417207845 0.26265311374716,-203.228625633986354 C 0.044499158523122,-90.526076162834954 -0.261895433321463,-42.001543537411443 0,0" fill="none" filter="url(#drawn20)" shape-rendering="geometricPrecision" stroke="#222" stroke-linecap="round" stroke-linejoin="round" stroke-width="2.000000" />
    <path d="M 210,-257 C 205.174461545816001,-257.263559992586636 198.832230697142137,-257.060137274646422 192.466941250421598,-257.08621496988178 C 187.64041745936666,-257.003405350862636 181.844124702329481,-257.379158288868894 170,-257 C 170.021014739218316,-261.7080511420628 170.075357369913291,-265.908363258978056 169.947664079904115,-270.154675824099002 C 169.814843178453458,-275.211623279610876 169.63405593992627,-283.290656010901046 170,-297" fill="none" filter="url(#drawn20)" shape-rendering="geometricPrecision" stroke="#222" stroke-linecap="round" stroke-linejoin="round" stroke-width="2.000000" />
    <g transform=" translate(105.28722337182144,-315.218353909799816)">
     <text fill="#222" filter="url(#drawn30)" font-family="DejaVu Sans Mono" font-size="30" shape-rendering="geometricPrecision" stroke="#222" stroke-linecap="round" stroke-linejoin="round" stroke-width="3.000000" text-anchor="middle" text-rendering="geometricPrecision">
<tspan x="0" y="11.25"><tspan>Krypttext</tspan></tspan>     </text>
    </g>
   </g>
   <g transform=" translate(-450,0.000000000000014)">
    <path d="M -13.656322541128977,68.654969628226127 C -8.23953214058459,68.777731012130886 -4.837793550590395,68.690149802457597 0.105111821552404,68.746500645532421 C 3.83860189172651,68.513711220549382 7.287203753551843,68.70421483622917 13.656322541128977,68.654969628226127 C 14.74604967045574,70.574520938304431 16.240941328418796,73.069534294564392 21.984442801367969,82.459618297691918 C 22.272243284560496,82.938477794976279 22.706951372015801,83.818175798610497 24.429640487856684,86.620971280828257 C 25.55467221538834,86.231638308073755 25.887140304736025,86.044296996702599 26.797820819601245,85.657401134659622 C 30.29601074968339,84.27712241374897 38.350879146292094,80.831671794257772 43.975911734725941,78.524640636551752 C 42.917959574054748,74.618910482219221 42.810048297663236,73.939358623535867 42.47867900400334,72.521375489702834 C 41.593404267846552,69.086088761691713 41.359651843164954,67.703642378556196 38.889916311372154,58.202872861178164 C 39.627865811780133,57.405519382957671 41.077134746237,55.825672716871566 44.737105922820227,52.309923841553228 C 50.028358219017818,47.255887077653057 54.717157990034757,42.206583752302116 58.202872861178164,38.889916311372161 C 63.00247259121474,40.168007094385288 64.025196476210894,40.334065957968015 72.054949143151561,42.362157492503648 C 73.165949523238041,42.618494789007705 75.491746463951031,43.107904193252452 78.524640636551737,43.975911734725948 C 80.782711616283834,38.054223169698261 81.872786153690171,36.06700998258075 84.445603636922357,29.760261601017277 C 84.858162585064917,28.660798065849573 85.153690576463063,28.028704178120098 86.620971280828257,24.429640487856688 C 83.877100180992556,22.835170133644557 82.299068828264055,21.992672955300669 77.777356974767287,19.161602376960914 C 75.682097891311102,17.818348221832455 74.331615615445727,17.073014780983584 68.654969628226127,13.656322541128983 C 68.428228511920835,7.571522471346235 68.614449143588956,3.062213023137229 68.589263990629362,-6.137465176311106 C 68.769065935682434,-9.470615704404759 68.647454853831007,-9.860069844343792 68.654969628226127,-13.656322541128974 C 72.026974496774855,-15.64305405224605 72.871671363527739,-16.160280380760437 78.45618063314646,-19.484486275237298 C 80.921207909914429,-20.90545037067896 82.001021066230123,-21.554267984636262 86.620971280828257,-24.42964048785668 C 84.574086267170188,-28.967757457317063 84.669700472068456,-29.190901694493231 83.797563531514811,-31.241551373470315 C 82.137647619497343,-34.956886104363505 81.813563983072825,-36.132266461843187 78.524640636551752,-43.975911734725919 C 77.508946869889357,-43.744715083213997 75.693535518515759,-43.360564281647285 72.416931896116694,-42.419136834829708 C 69.3703473887972,-41.869183984199189 65.690007654814622,-40.629927546334251 58.202872861178179,-38.88991631137214 C 53.62495245897054,-43.306021511797127 50.967191813497976,-46.282303971116669 45.872098185642685,-51.275717240402066 C 43.467542894396111,-53.950567352065995 42.038515895381053,-55.040257263701719 38.889916311372154,-58.202872861178172 C 39.117999973157119,-58.937082999767696 39.507480516977203,-60.616775847989118 39.648354611648699,-61.212686727142355 C 41.234358284763083,-67.976467746266621 42.303510385584225,-72.145911028070955 43.975911734725933,-78.524640636551752 C 42.456732670119003,-79.264908050305991 40.758817304559216,-79.813876992853366 39.422731366850165,-80.430044954573944 C 31.841576866508053,-83.879608762035275 27.731459899551496,-85.350699109638299 24.429640487856712,-86.620971280828243 C 23.852781072194805,-85.5863232790323 23.016778856695382,-84.204066304804911 22.47910764967817,-83.33761347854346 C 20.321801212878199,-79.902686565459973 16.064706148033739,-72.771018898056553 13.656322541129002,-68.654969628226127 C 5.519059974426176,-68.556929865151005 4.053237405892708,-68.655334571702497 -0.704077131737089,-68.749757820281332 C -7.293016958418168,-68.733380806681851 -10.888001438903975,-68.858368532485727 -13.656322541128985,-68.654969628226127 C -14.55460670832151,-70.307563165106146 -15.592691474353,-71.816061836975408 -16.757220006103438,-73.889245151510522 C -17.695816103523892,-75.362891219035959 -18.806817000727793,-77.35594067701733 -24.429640487856652,-86.620971280828272 C -30.267891290279035,-83.863341005721423 -31.606647376950143,-83.588488200207607 -35.247270401131587,-82.119108664819109 C -38.10054432159626,-81.009220759557635 -39.424486923726839,-80.433200608711957 -43.975911734725955,-78.524640636551737 C -42.753213373885664,-73.556650590898926 -42.187782163035479,-71.6271199237177 -40.459998450241606,-64.635257588059218 C -40.195572035196449,-63.501913851578401 -39.507957995699819,-61.023159999925227 -38.88991631137214,-58.202872861178179 C -43.626427380078987,-53.979899681808455 -47.545097833561677,-49.6877800441112 -51.659222017278751,-45.646734126972582 C -53.278027517081426,-43.905419252256394 -55.596885162188563,-41.38491038150098 -58.202872861178164,-38.889916311372154 C -59.72362699397528,-39.270266815241932 -61.228859179044804,-39.767157224660103 -65.766496693086935,-40.817890197584354 C -69.613221225382233,-41.770289968060268 -74.787703235960478,-43.320434255831003 -78.524640636551723,-43.975911734725976 C -80.429094450114121,-38.734817353579274 -82.608197009367515,-34.073951641753112 -83.999831598080164,-30.96674863733238 C -84.369773695756095,-30.019154658235561 -84.726608077052504,-29.190251952897352 -86.620971280828257,-24.42964048785668 C -85.744190946316508,-23.877379920926224 -84.541815863398298,-23.108943410091303 -78.704436484231167,-19.654291668540825 C -75.486584447616977,-17.657890396153473 -72.55947356123815,-16.022449822306662 -68.654969628226127,-13.656322541129006 C -68.560524006672978,-12.020023384820609 -68.667227530543457,-11.247217587069905 -68.632864265180132,-4.793706612455323 C -68.957131900206264,1.278308934505336 -68.580926577974424,4.933738541527422 -68.654969628226127,13.656322541128981 C -70.806829377041339,14.794264557292822 -71.064596275254559,15.118295123168792 -73.952223137605515,16.808147924765102 C -75.898070161417422,17.931909295978254 -78.011641618545767,19.226119569578941 -86.620971280828272,24.429640487856648 C -84.66747478582316,29.660048839580966 -83.262127614934684,32.896887955622518 -82.093712573200861,35.523780699338076 C -80.237626296000002,40.205996456529292 -79.404641284658098,42.029683249322531 -78.524640636551737,43.975911734725948 C -77.903125536550974,43.793078832576924 -77.417937773838304,43.721007327652195 -76.396035335384326,43.438782842817105 C -70.510151384379142,41.712002015336481 -65.520682630082277,40.948578777181154 -58.202872861178179,38.889916311372126 C -57.464682725100786,39.605389915341803 -56.568808033361464,40.571906076695853 -55.038372428588083,42.04600730918861 C -47.969325642414546,48.907957948474724 -46.5442787087214,50.647721605410361 -38.889916311372154,58.202872861178164 C -39.864238305216084,63.183684080853936 -40.199843542336588,63.459299303307205 -40.598870262488816,65.095846391703802 C -42.389879281225674,72.414157383319576 -43.112939071285851,74.631003030571037 -43.975911734725983,78.524640636551709 C -43.382176012379652,78.798725614866541 -40.357763372702308,80.173308024753737 -38.673109301659615,80.767954080318773 C -33.778043233048095,82.568592317625672 -29.183967086007545,85.004184924367834 -24.429640487856684,86.620971280828257 C -23.605630669935007,85.319516260143828 -22.088032356837694,82.518712404209211 -19.741238562292519,78.906669167514266 C -19.043419814100474,77.69083902867122 -17.301650397691404,75.178831945957469 -13.656322541128977,68.654969628226127" fill="#ddd" shape-rendering="geometricPrecision" stroke="none" />
    <path d="M -13.656322541128977,68.654969628226127 C -9.820267434205194,68.78205484780888 -9.05548195454152,68.586039831796114 -7.794942950461595,68.610817004297147 C -2.867439282723621,68.790129160510148 5.275441802014676,68.316649842616371 13.656322541128977,68.654969628226127 C 17.341186122766203,74.880894445599139 17.652241097852571,75.240095443228824 19.117769618877716,77.708950362255038 C 22.609880848967645,83.064586863374686 23.158803572150994,84.6069588416957 24.429640487856684,86.620971280828257 C 29.585762249331253,84.684304770758999 34.395562760710398,82.638761976698703 37.73716461429354,81.118034877619536 C 41.170495869448878,79.784178148567349 42.344106860773053,79.202186335764353 43.975911734725941,78.524640636551752 C 43.711844745562495,77.20792842134297 42.969775881472295,74.451696862810181 42.602887337642919,73.051058610645441 C 41.818599128069337,69.995418214315137 41.633376494413348,68.983321983923318 38.889916311372154,58.202872861178164 C 39.986023408054947,57.04950114846099 45.755023397427934,51.210811782843564 49.657091457158053,47.522068838423046 C 50.771704163284987,46.319077395298457 56.019417722290463,41.018437341081942 58.202872861178164,38.889916311372161 C 59.467219518448175,39.126909084206858 63.440645023043267,40.25953471623626 64.680265714736748,40.543243856906038 C 68.248247736085645,41.325113240669467 72.178118969627548,42.168164001719234 78.524640636551737,43.975911734725948 C 80.398262219479577,38.792453623203535 82.815324878561512,33.506311771543764 83.963780149049526,30.91521282774676 C 84.459999241544992,29.764047886270834 86.152157527480796,26.088603426538764 86.620971280828257,24.429640487856688 C 81.873162069585675,22.02500227534955 81.255775970937265,21.268786555059634 74.284059485412797,17.066453343085612 C 73.117937456848495,16.413321008900173 70.228165095137442,14.820642950629123 68.654969628226127,13.656322541128983 C 68.829849727559207,10.454927669638531 68.779677599019621,8.556039641760625 68.730337555108378,2.494516063288174 C 68.662741551275829,-5.831330062234174 68.75039631345507,-7.288360792384959 68.654969628226127,-13.656322541128974 C 69.770729713859993,-14.396935993837943 70.424641427387783,-14.727146625497966 71.051766094688105,-15.05984203105743 C 78.157774633926408,-19.247427650446557 82.937770486891225,-22.3013458814162 86.620971280828257,-24.42964048785668 C 86.038310423928451,-25.959847546252156 84.226110355466375,-30.154564592953715 81.27330029188424,-37.115258941153009 C 79.816414008800336,-40.508393528552894 79.187954734049868,-42.15706754221754 78.524640636551752,-43.975911734725919 C 77.567437692556638,-43.72402743254996 75.991972861806772,-43.41008259834183 71.958399166246963,-42.380998749163972 C 70.212730430307104,-41.968987814963747 66.627961975332411,-40.902771629065121 58.202872861178179,-38.88991631137214 C 55.852423402749324,-41.316309269183428 51.525105698855519,-45.793533091703253 48.34350580093998,-48.849107717939631 C 46.634456390170008,-50.613689801699515 44.274516496447404,-53.215846674850532 38.889916311372154,-58.202872861178172 C 39.344640204597297,-59.889967845071645 40.522050939028375,-64.989377677098148 41.22962744753162,-67.762025616589909 C 41.722481204165291,-69.828471618516403 42.43934244642638,-72.79105428961671 43.975911734725933,-78.524640636551752 C 41.800909765619039,-79.360522890978416 40.936656298313608,-79.807480374141164 36.891976631577982,-81.476085668031473 C 30.757795377301939,-83.850100247682988 29.590009071282093,-84.492789619142613 24.429640487856712,-86.620971280828243 C 22.515715122291304,-83.209266545409434 21.813131234833858,-82.243842295533796 19.239153930470351,-78.018970402436139 C 16.8012671336236,-74.015640353050827 15.087487646168533,-71.158908475146973 13.656322541129002,-68.654969628226127 C 12.631764063124436,-68.658697724585593 12.006363144448265,-68.639700236282394 10.116067101134687,-68.662072769828711 C 5.506012224481259,-68.759943275680129 -4.222199203081232,-68.585815751705411 -13.656322541128985,-68.654969628226127 C -15.673760030116664,-72.35878946831069 -16.512242661340192,-73.337925333428259 -19.408711079651386,-78.139555943607618 C -21.097343778286334,-80.972366423350778 -22.910929352076753,-83.871247805377067 -24.429640487856652,-86.620971280828272 C -25.008472523243757,-86.39064306442161 -25.422909283667515,-86.219138062315878 -29.622835814562801,-84.499157759608678 C -32.807945130202746,-83.171693407450306 -36.157545320253021,-81.734826942442808 -43.975911734725955,-78.524640636551737 C -43.656860410928211,-76.934494733453164 -43.266934990245801,-75.75383301542702 -41.481363532592965,-68.846033080439611 C -39.683285347148086,-62.869295862373356 -39.688754639052121,-61.21213235497585 -38.88991631137214,-58.202872861178179 C -40.980761276939369,-55.917733577619842 -42.277303891011272,-54.825125767796195 -44.095695430765772,-53.020236951700781 C -47.620800411557624,-48.94493267103946 -54.273389633150153,-42.66312665639645 -58.202872861178164,-38.889916311372154 C -59.732128613956647,-39.39599204246808 -66.148633376003204,-40.658662468243541 -69.585522176652162,-41.833218137162547 C -75.193263700901184,-43.340884401637453 -76.295079375897686,-43.412805686574409 -78.524640636551723,-43.975911734725976 C -79.432340591604714,-41.579160654406444 -80.051103229891297,-40.238894034890414 -81.734828701490798,-36.34361774182895 C -84.685545912826129,-29.334127467596176 -85.082511402918357,-28.157376865042867 -86.620971280828257,-24.42964048785668 C -80.456848393741112,-20.6457069509447 -78.617339572678745,-19.519099640251699 -74.296042415803086,-17.072133713468943 C -73.101133997277984,-16.295572751185357 -70.601388655617598,-14.949046513478438 -68.654969628226127,-13.656322541129006 C -68.718018584380545,-8.384854719889468 -68.84510902484574,-5.211899246281638 -68.712173554322803,7.06015798928151 C -68.708668397526367,7.95171135053869 -68.68260756497304,8.661263454289541 -68.654969628226127,13.656322541128981 C -70.250584641335777,14.660578294146982 -70.728749226665002,14.861375559823767 -72.449600063720908,15.900763567656073 C -74.534965600436493,17.315374267404742 -80.065875251896628,21.030513280973476 -86.620971280828272,24.429640487856648 C -85.607426049211085,26.802109547623719 -84.295047416514791,30.311059042410321 -82.471286360914789,34.598775532640673 C -80.763208011263131,39.072353488380031 -80.149003281289637,40.199143719454717 -78.524640636551737,43.975911734725948 C -74.569169601887168,42.916283057775772 -73.889157925919719,42.868461593699628 -72.299681939920688,42.422012512422299 C -63.942591174008271,40.048113789007438 -62.44167867378637,39.867839083093955 -58.202872861178179,38.889916311372126 C -53.47152501129456,43.919910355507255 -50.56755385037804,46.534363678996613 -45.449377365299647,51.58052760315595 C -44.124937504759863,52.993507884585902 -40.86438852543462,56.474731830579231 -38.889916311372154,58.202872861178164 C -39.835554402640653,61.508114108645586 -40.111304472517205,63.442717728810933 -41.9842285026605,70.671565692005615 C -42.451314597937092,72.979604182809666 -43.286120232585603,75.513111690925797 -43.975911734725983,78.524640636551709 C -42.624860939061321,79.029520297794264 -41.770849833613937,79.420679928101578 -33.582521504029145,82.812385972304 C -31.29178263554947,83.594049281136463 -26.772099762119094,85.747485721741214 -24.429640487856684,86.620971280828257 C -23.755927153329861,85.496927575010787 -21.821002636022722,82.454008645921235 -20.610736608345775,80.382322095638344 C -18.250794975604435,76.261112546152546 -15.575822286977788,71.702850620515292 -13.656322541128977,68.654969628226127" fill="none" filter="url(#drawn20)" shape-rendering="geometricPrecision" stroke="#222" stroke-linecap="round" stroke-linejoin="round" stroke-width="2.000000" />
    <text fill="#222" filter="url(#drawn35)" font-family="DejaVu Sans Mono" font-size="35" shape-rendering="geometricPrecision" stroke="#222" stroke-linecap="round" stroke-linejoin="round" stroke-width="3.500000" text-anchor="middle" text-rendering="geometricPrecision">
<tspan x="0" y="13.125"><tspan>ASYM</tspan></tspan>    </text>
   </g>
   <g transform=" translate(450,0.000000000000014)">
    <path d="M -13.656322541128977,68.654969628226127 C -6.745786572773767,68.657418399049206 -2.212001434378356,68.740597805892151 6.086423525652693,68.791091602442805 C 7.857032247426337,68.672271460641198 9.599341128724873,68.77039888750744 13.656322541128977,68.654969628226127 C 14.275097662735327,69.75046644030499 16.079490088964565,72.515950074850892 16.723121221760515,73.791046548068067 C 18.794995051066206,76.8246863982626 19.607788946480376,78.541946194458461 24.429640487856684,86.620971280828257 C 27.974901941436265,84.915799673747316 30.738424478862918,83.804179178499112 35.142896690851011,82.109344765277697 C 37.150268136727512,81.420410952256404 41.6110063769855,79.159627935078788 43.975911734725941,78.524640636551752 C 43.389901700450999,76.181913363351015 43.228194280249156,75.59592436816834 41.646311567002726,69.306159401441818 C 40.959872735507417,65.918398152112957 39.501012197773299,61.567082490425868 38.889916311372154,58.202872861178164 C 44.668163016224121,52.556713803542841 48.421472646374639,48.668239092918448 51.246677678098621,46.060043475727149 C 53.750085344773268,43.357913990731504 55.928678210464454,41.12956446925439 58.202872861178164,38.889916311372161 C 60.102791884980242,39.286083356624196 62.957216498341722,40.045290372778673 65.376889192059281,40.721272021308373 C 68.566265838959609,41.649159149235366 73.303806313984936,42.760267709169419 78.524640636551737,43.975911734725948 C 79.403980721955264,41.90399237419571 80.358010100739449,39.926325789975074 83.129583692173128,32.908167564849542 C 84.720857818358382,28.505620367029305 85.403478228668291,27.11192930042618 86.620971280828257,24.429640487856688 C 85.483568628179526,23.683820819082346 82.57698471935332,22.227733354303993 77.051507122594259,18.695991091679335 C 75.009668275197456,17.387873011826223 70.42383675028141,14.694428348048334 68.654969628226127,13.656322541128983 C 68.690215479872521,11.142462716475098 68.341513165428296,1.886209992573034 68.606373975091955,-6.886559184266099 C 68.618111291220515,-9.181503743292186 68.589312467203015,-10.143014078666239 68.654969628226127,-13.656322541128974 C 73.527179146492102,-16.722650811301694 75.329616567868186,-17.613793792756766 78.885148231318936,-19.812350347372256 C 81.152658722590672,-21.271002216226492 82.446227207583831,-21.967224131164198 86.620971280828257,-24.42964048785668 C 86.166521985313835,-25.669057248477678 85.889334869462502,-26.28398467724319 85.301529703800142,-27.576283369087914 C 81.329476165254874,-36.43916513680476 80.666210975724283,-39.03528599014124 78.524640636551752,-43.975911734725919 C 74.405168421340974,-42.764240815245863 72.585451242569007,-42.574792914343071 69.668038780358103,-41.801052028141321 C 66.28190598739377,-41.154604564123225 63.607794407057646,-40.099996344604051 58.202872861178179,-38.88991631137214 C 53.727881340637467,-42.752749196473047 52.37878650979777,-44.764028697717002 48.908122375305666,-48.077199038580467 C 45.187286142942462,-51.989041976296036 42.452414822279742,-54.41214453859989 38.889916311372154,-58.202872861178172 C 39.501323285707983,-61.243486701607431 40.199581734012916,-63.906217667823697 42.538791726611464,-73.213637960670482 C 43.338906091834737,-75.842578589501798 43.314264601603632,-76.037808799186095 43.975911734725933,-78.524640636551752 C 40.649504409917469,-79.782138920141108 36.987196648613292,-81.122380927759266 33.84207937160032,-82.686575520291285 C 28.359833884546731,-85.401887252843366 27.615290806024532,-85.308366570280185 24.429640487856712,-86.620971280828243 C 22.374274543369829,-83.22755714243884 20.166669413848236,-79.33960810071369 17.689464375412591,-75.354122071681161 C 16.779587551302516,-73.93727013823667 15.094147747792556,-71.177622828694226 13.656322541129002,-68.654969628226127 C 6.766546661655285,-69.017636271095625 4.116022269743818,-68.595625700203826 -2.99938261991192,-68.539340844318275 C -4.572652786688537,-68.562168488153503 -11.444907330895305,-68.621964191702347 -13.656322541128985,-68.654969628226127 C -14.870009710339131,-70.841027833737414 -15.826295134001839,-72.41176330217948 -17.092866281077399,-74.395258511397159 C -19.610451302307588,-78.415121103444406 -21.468055731124391,-82.026526101842222 -24.429640487856652,-86.620971280828272 C -29.195689808780195,-84.57547141350949 -30.697294305450352,-83.951251730322483 -33.112733315346276,-82.941323864150874 C -36.570451575284949,-81.427411400570961 -40.388503910017796,-80.031662432344262 -43.975911734725955,-78.524640636551737 C -43.092931328017862,-75.222903845830714 -41.860339632246678,-68.571791326460001 -40.372789846439311,-64.575434361711572 C -40.113529913630892,-63.465501244116467 -39.9578560953072,-62.901320865955455 -38.88991631137214,-58.202872861178179 C -47.379788259843131,-50.604075058402323 -48.279499156367699,-48.88995183437067 -53.072347781506799,-44.093782680221608 C -54.260809760097771,-42.885125176481552 -56.519723151426533,-40.346490179490758 -58.202872861178164,-38.889916311372154 C -58.898007256507682,-39.099325392045081 -60.057565406244635,-39.421580217576476 -60.86988410315881,-39.564289739180566 C -72.739482566222108,-42.448127011407337 -73.627110007580455,-42.694555646144885 -78.524640636551723,-43.975911734725976 C -81.235518916947285,-37.452729486248415 -81.660652463336802,-36.480607854994851 -82.920130045817288,-33.494855188039111 C -84.711038860692057,-28.750403084120546 -85.265450797396369,-27.633932452587199 -86.620971280828257,-24.42964048785668 C -84.522715035654514,-23.272294121781226 -83.792373558090475,-22.749814356638506 -80.937732096161668,-20.989451391444828 C -74.73616028599119,-17.507628989838658 -70.907691668214525,-15.309948813893744 -68.654969628226127,-13.656322541129006 C -68.817783471511177,-9.190941629792478 -68.534039123973741,-7.46711534615144 -68.599592257200939,-4.354540794629983 C -69.133574667699435,8.483369455172058 -68.684088748232767,9.231209346714181 -68.654969628226127,13.656322541128981 C -71.799436220641084,15.399312655491777 -72.197068139887932,15.748203662197634 -73.658676963436605,16.600348486221471 C -77.026769143945913,18.450250912669038 -83.399585115748664,22.817724134152336 -86.620971280828272,24.429640487856648 C -85.018508045642733,28.090148775680333 -83.56887319331075,31.437954184370518 -82.458327729588561,34.338334135387058 C -79.79564160827556,40.60472084283122 -79.512921269173802,41.45124902141346 -78.524640636551737,43.975911734725948 C -77.862057211538698,43.762433680836843 -75.938123068535077,43.299341683522378 -71.707934382393816,42.307112065634811 C -63.893532410571481,40.175325817467716 -61.980546721915282,39.889028524728126 -58.202872861178179,38.889916311372126 C -56.211309972342278,41.03646922414957 -55.113206569754219,41.850379338626034 -53.349167485644756,43.673431062804269 C -45.689037798723007,51.203335217237942 -44.934934174784736,52.24301516875785 -38.889916311372154,58.202872861178164 C -39.573159728008029,60.787444779859854 -41.16884720853367,66.681352420972701 -41.530308996391298,68.768840968664776 C -41.730865813522684,69.789520868500631 -42.931336626660524,75.562189978027007 -43.975911734725983,78.524640636551709 C -42.831720995098649,78.922372944375041 -39.649319935227183,80.145820716357932 -37.444707382426877,81.288402707756845 C -35.928289619810727,81.854695491303815 -30.339698861586708,84.222065210206509 -24.429640487856684,86.620971280828257 C -24.069342901648767,85.963828463634115 -23.598630894887872,85.200129098318399 -21.83864719801814,82.316196394095229 C -19.907565146894392,78.867832509662279 -18.863472872982662,77.25811066724458 -13.656322541128977,68.654969628226127" fill="#ddd" shape-rendering="geometricPrecision" stroke="none" />
    <path d="M -13.656322541128977,68.654969628226127 C -12.94220353445159,68.675480225201923 -12.028836896200543,68.694818360015418 -10.142436742272967,68.643077936285124 C -5.548879161636847,68.798519422992698 0.359758067546871,68.382847681647789 13.656322541128977,68.654969628226127 C 15.120484206604816,71.353400921957885 16.46964466936976,73.377244049617801 17.407029172310462,74.844775727624693 C 18.663715798401729,76.868283422017171 22.142810300076128,82.761524038600172 24.429640487856684,86.620971280828257 C 27.015610963757812,85.313578493824622 28.387675053626992,84.910947866867403 31.475400002878175,83.666087495876823 C 33.965323062521556,82.839831361201277 36.615069060908546,81.677240783856732 43.975911734725941,78.524640636551752 C 43.145264120335341,75.156424349490237 40.510340049717037,66.960998539609207 40.140736330304605,63.128554774308576 C 39.825837467006778,61.895370778618265 39.638567397040987,61.224919243719327 38.889916311372154,58.202872861178164 C 41.737540754160932,55.368085924840081 43.071136761866221,53.944706664438371 45.207020316847078,51.787183331516502 C 48.463262498898345,48.600013057009271 51.12822682144062,45.824110488078638 58.202872861178164,38.889916311372161 C 59.986445504137635,39.24620569659912 61.171049362405235,39.643136344086741 66.663999912533825,41.061242274740508 C 69.090996761790308,41.650926854850852 72.398905790675727,42.283936664792805 78.524640636551737,43.975911734725948 C 80.338450038311819,39.517822356113406 81.950176410073212,36.288370014189042 83.334965437230593,32.452711767289486 C 83.788298654826022,31.479056541515938 85.594082324513863,26.281676173849231 86.620971280828257,24.429640487856688 C 85.124600042336411,23.512522044940784 83.947157617018846,22.830919080842641 80.981238525234133,21.06200107350508 C 76.892255637121622,18.414668201849185 73.31526848570546,16.317887871502951 68.654969628226127,13.656322541128983 C 68.661913745573557,11.740736086812964 68.775503514934769,9.250035923893099 68.621412448660919,6.105173354983632 C 68.792328235628091,2.207276565848724 69.120506935512282,-9.985783871695592 68.654969628226127,-13.656322541128974 C 70.239165344059657,-14.681333732095593 72.226763103646789,-15.847754643765354 76.470081961463791,-18.399906721237638 C 77.672748278145107,-19.05896363732715 83.314016714232636,-22.794148729887926 86.620971280828257,-24.42964048785668 C 85.890981648429801,-26.00681986899599 85.236818617155635,-27.616385861843632 83.504503500251843,-31.994015163533145 C 80.948195958095951,-39.36812073439166 80.052761064525058,-40.156194841495612 78.524640636551752,-43.975911734725919 C 76.988373875608147,-43.626450548469144 71.254383989307229,-42.467256976124659 63.336683836918056,-40.237505216734171 C 62.035884635209108,-39.927331502794139 60.171890323933354,-39.324959925390068 58.202872861178179,-38.88991631137214 C 52.22087417608774,-45.172190985850186 49.3066755546172,-47.749296164449774 43.01727258640107,-54.096798570354366 C 42.201624286610766,-54.926709073750985 40.829765897322964,-56.407790212900714 38.889916311372154,-58.202872861178172 C 39.592792980161029,-61.760559172808641 39.880532705441006,-62.23351466827156 40.88567949566734,-66.277329192580723 C 41.249420980558817,-67.539123377275445 41.982052370731175,-70.671195184484631 43.975911734725933,-78.524640636551752 C 43.040880820690454,-78.982302852517321 41.519971925956888,-79.532339256290214 38.529164043164975,-80.813437555383146 C 34.586794373841954,-82.533863481630121 30.591884633158305,-84.209359222784684 24.429640487856712,-86.620971280828243 C 24.21237108483345,-86.233802339356927 23.594873576796623,-85.261366819574988 22.865721114132366,-84.012922507096562 C 21.311787076701702,-81.188516938398408 18.125041847678322,-76.560928828706253 13.656322541129002,-68.654969628226127 C 6.079285903485348,-68.433441333735104 4.364777748113486,-68.64942158172363 -0.765358214383446,-68.58012813005432 C -3.026739589644944,-68.69045792007374 -6.769435058086094,-68.471529334121712 -13.656322541128985,-68.654969628226127 C -15.025280209141238,-71.125721614107349 -16.931073096588886,-74.023158704027423 -18.038045910435439,-76.057729660694505 C -19.849836091913478,-78.977482982112619 -21.17342175735234,-81.169433122571789 -24.429640487856652,-86.620971280828272 C -25.239619031071115,-86.327608475829294 -27.329430526557626,-85.470566232809645 -30.235027296722269,-84.192051848397057 C -32.420163202696372,-83.410387579994065 -34.614292410282069,-82.42152256350937 -43.975911734725955,-78.524640636551737 C -43.087134697056911,-75.335013350682303 -42.824743396873735,-73.725527523405631 -42.181986638041693,-71.333316126255966 C -41.554054122556742,-68.875636574400602 -39.696721744174361,-62.378693988347429 -38.88991631137214,-58.202872861178179 C -40.103571624621011,-57.077056235169927 -40.517185800781,-56.593119667217792 -41.593652417062245,-55.458995937151442 C -45.772713904893983,-51.376257800690482 -49.798941161817922,-47.47859492384152 -58.202872861178164,-38.889916311372154 C -65.017567500927456,-40.343551782292302 -66.146233095240262,-40.887296579661701 -74.240116532218266,-42.843355993652821 C -76.158627702922146,-43.29700425119384 -76.511612143239958,-43.420443091858999 -78.524640636551723,-43.975911734725976 C -79.97156373296994,-40.951770408144064 -81.214684496022471,-36.857725730733193 -83.609300814286783,-31.372140027289142 C -84.827964801186823,-28.801580688272622 -84.896419025337281,-28.401584940114521 -86.620971280828257,-24.42964048785668 C -85.465431678586327,-23.680045935827653 -85.178170974046026,-23.557585964484009 -83.70940386635489,-22.675935235564946 C -80.96968281067285,-20.897004670737388 -80.149277668405418,-20.504084452162452 -68.654969628226127,-13.656322541129006 C -68.764904391920126,-9.732893715188426 -68.748531887016881,-7.977647350588709 -68.717174432586276,3.176994159359254 C -68.770581171654428,4.956135469452488 -68.731109244850629,11.758107745973323 -68.654969628226127,13.656322541128981 C -74.395119439024256,16.99891607562267 -78.091021141467607,19.16011528141896 -81.190045994466061,21.176698213060352 C -82.796168247433812,22.183011231618678 -83.861686074512278,22.811758430617509 -86.620971280828272,24.429640487856648 C -84.942504688691542,28.087401411772007 -84.194684241546767,30.312938334051072 -81.504092870842186,36.497276944788432 C -81.101273910186151,37.474163756960415 -80.236025794965386,39.841558330576085 -78.524640636551737,43.975911734725948 C -77.816855070073075,43.816540553697408 -76.204509527738935,43.304398853463923 -74.004865726841587,42.863611293275255 C -69.899980167195935,41.825833473878852 -62.888735645147726,39.738415858290608 -58.202872861178179,38.889916311372126 C -54.592620083545512,42.273913193314542 -50.117860805723467,47.054469259588302 -44.748875618911867,52.501936930858157 C -42.797471116617579,54.361210671861393 -40.021324832140515,56.787945284327705 -38.889916311372154,58.202872861178164 C -39.36883644799768,59.722095998784894 -39.436779313368547,60.334890824395544 -40.249393490037853,63.625500816831732 C -40.795189607107126,65.466930837754546 -41.248764266902683,67.189888367381656 -43.975911734725983,78.524640636551709 C -37.500723507034891,81.354686485458174 -35.588103925961448,81.807862057158388 -32.498711594120138,83.204400039935635 C -30.797207648855142,83.977534981514268 -27.886936673587918,85.156292031083709 -24.429640487856684,86.620971280828257 C -22.951581664809535,83.752370525806938 -21.999566267987291,82.379996958886707 -18.301277053910297,76.423539250221921 C -15.69421786216145,72.432064715825021 -15.007652077671036,70.900777416320594 -13.656322541128977,68.654969628226127" fill="none" filter="url(#drawn20)" shape-rendering="geometricPrecision" stroke="#222" stroke-linecap="round" stroke-linejoin="round" stroke-width="2.000000" />
    <text fill="#222" filter="url(#drawn35)" font-family="DejaVu Sans Mono" font-size="35" shape-rendering="geometricPrecision" stroke="#222" stroke-linecap="round" stroke-linejoin="round" stroke-width="3.500000" text-anchor="middle" text-rendering="geometricPrecision">
<tspan x="0" y="13.125"><tspan>ASYM</tspan></tspan>    </text>
   </g>
   <g transform=" translate(-772,-72)">
    <path d="m 61.47,69.3114 -32.8648,32.0514 v 14.48 h 15.1308 v -9.2738 h 10.2498 v -11.7142 h 10.1968 l 4.8088,-4.8088 v -8.7166 h 4.03M0.000000,0.000000M144.000000,144.000000" fill="none" filter="url(#drawn40)" shape-rendering="geometricPrecision" stroke="#222" stroke-linecap="round" stroke-linejoin="round" stroke-width="4.000000" />
    <path d="m 104.9444,47.996398 a 7.9042,7.9042 0 0 1 -7.9042,7.904202 7.9042,7.9042 0 0 1 -7.9042,-7.904202 7.9042,7.9042 0 0 1 7.9042,-7.9042 7.9042,7.9042 0 0 1 7.9042,7.9042 zM0.000000,0.000000M144.000000,144.000000" fill="none" filter="url(#drawn40)" shape-rendering="geometricPrecision" stroke="#222" stroke-linecap="round" stroke-linejoin="round" stroke-width="4.000000" />
    <path d="M68.4512,62.3562c-2.8596-8.4766-0.6932-18.4418,6.3608-25.3894c9.6892-9.543,24.9308-9.7788,34.0432-0.5268 s8.6446,24.4882-1.0446,34.0312c-7.8338,7.7154-19.2968,9.3472-28.2158,4.7996M0.000000,0.000000M144.000000,144.000000" fill="none" filter="url(#drawn40)" shape-rendering="geometricPrecision" stroke="#222" stroke-linecap="round" stroke-linejoin="round" stroke-width="4.000000" />
    <g transform=" translate(72,183.599999999999994)">
     <text fill="#222" filter="url(#drawn8)" font-family="DejaVu Sans Mono" font-size="30" shape-rendering="geometricPrecision" stroke="#222" stroke-linecap="round" stroke-linejoin="round" stroke-width="0.800000" text-anchor="middle" text-rendering="geometricPrecision">
<tspan x="0" y="-26.25"><tspan>Bobs</tspan></tspan><tspan x="0" y="11.25"><tspan>öffentlicher</tspan></tspan><tspan x="0" y="48.75"><tspan>Schlüssel</tspan></tspan>     </text>
    </g>
   </g>
   <g transform=" translate(-772,-72)" />
   <g transform=" translate(628,-72)">
    <path d="m 72,30 v -14M0.000000,0.000000M144.000000,144.000000" fill="none" filter="url(#drawn40)" shape-rendering="geometricPrecision" stroke="#222" stroke-linecap="round" stroke-linejoin="round" stroke-width="4.000000" />
    <path d="m 114,72 h 14M0.000000,0.000000M144.000000,144.000000" fill="none" filter="url(#drawn40)" shape-rendering="geometricPrecision" stroke="#222" stroke-linecap="round" stroke-linejoin="round" stroke-width="4.000000" />
    <path d="m 101.698402,101.698402 9.899598,9.899598M0.000000,0.000000M144.000000,144.000000" fill="none" filter="url(#drawn40)" shape-rendering="geometricPrecision" stroke="#222" stroke-linecap="round" stroke-linejoin="round" stroke-width="4.000000" />
    <path d="m 72,114 v 14M0.000000,0.000000M144.000000,144.000000" fill="none" filter="url(#drawn40)" shape-rendering="geometricPrecision" stroke="#222" stroke-linecap="round" stroke-linejoin="round" stroke-width="4.000000" />
    <path d="m 30,72 h -14M0.000000,0.000000M144.000000,144.000000" fill="none" filter="url(#drawn40)" shape-rendering="geometricPrecision" stroke="#222" stroke-linecap="round" stroke-linejoin="round" stroke-width="4.000000" />
    <path d="m 42.301602,42.301602 -9.899602,-9.899602M0.000000,0.000000M144.000000,144.000000" fill="none" filter="url(#drawn40)" shape-rendering="geometricPrecision" stroke="#222" stroke-linecap="round" stroke-linejoin="round" stroke-width="4.000000" />
    <path d="m 61.47,69.3114 -32.8648,32.0514 v 14.48 h 15.1308 v -9.2738 h 10.2498 v -11.7142 h 10.1968 l 4.8088,-4.8088 v -8.7166 h 4.03M0.000000,0.000000M144.000000,144.000000" fill="none" filter="url(#drawn40)" shape-rendering="geometricPrecision" stroke="#222" stroke-linecap="round" stroke-linejoin="round" stroke-width="4.000000" />
    <path d="m 104.9444,47.996398 a 7.9042,7.9042 0 0 1 -7.9042,7.904202 7.9042,7.9042 0 0 1 -7.9042,-7.904202 7.9042,7.9042 0 0 1 7.9042,-7.9042 7.9042,7.9042 0 0 1 7.9042,7.9042 zM0.000000,0.000000M144.000000,144.000000" fill="none" filter="url(#drawn40)" shape-rendering="geometricPrecision" stroke="#222" stroke-linecap="round" stroke-linejoin="round" stroke-width="4.000000" />
    <path d="M68.4512,62.3562c-2.8596-8.4766-0.6932-18.4418,6.3608-25.3894c9.6892-9.543,24.9308-9.7788,34.0432-0.5268 s8.6446,24.4882-1.0446,34.0312c-7.8338,7.7154-19.2968,9.3472-28.2158,4.7996M0.000000,0.000000M144.000000,144.000000" fill="none" filter="url(#drawn40)" shape-rendering="geometricPrecision" stroke="#222" stroke-linecap="round" stroke-linejoin="round" stroke-width="4.000000" />
    <g transform=" translate(72,183.599999999999994)">
     <text fill="#222" filter="url(#drawn8)" font-family="DejaVu Sans Mono" font-size="30" shape-rendering="geometricPrecision" stroke="#222" stroke-linecap="round" stroke-linejoin="round" stroke-width="0.800000" text-anchor="middle" text-rendering="geometricPrecision">
<tspan x="0" y="-26.25"><tspan>Bobs</tspan></tspan><tspan x="0" y="11.25"><tspan>privater</tspan></tspan><tspan x="0" y="48.75"><tspan>Schlüssel</tspan></tspan>     </text>
    </g>
   </g>
   <g transform=" translate(628,-72)" />
   <g transform=" translate(-222,-422)">
    <path d="m 61.47,69.3114 -32.8648,32.0514 v 14.48 h 15.1308 v -9.2738 h 10.2498 v -11.7142 h 10.1968 l 4.8088,-4.8088 v -8.7166 h 4.03M0.000000,0.000000M144.000000,144.000000" fill="none" filter="url(#drawn40)" shape-rendering="geometricPrecision" stroke="#222" stroke-linecap="round" stroke-linejoin="round" stroke-width="4.000000" />
    <path d="m 104.9444,47.996398 a 7.9042,7.9042 0 0 1 -7.9042,7.904202 7.9042,7.9042 0 0 1 -7.9042,-7.904202 7.9042,7.9042 0 0 1 7.9042,-7.9042 7.9042,7.9042 0 0 1 7.9042,7.9042 zM0.000000,0.000000M144.000000,144.000000" fill="none" filter="url(#drawn40)" shape-rendering="geometricPrecision" stroke="#222" stroke-linecap="round" stroke-linejoin="round" stroke-width="4.000000" />
    <path d="M68.4512,62.3562c-2.8596-8.4766-0.6932-18.4418,6.3608-25.3894c9.6892-9.543,24.9308-9.7788,34.0432-0.5268 s8.6446,24.4882-1.0446,34.0312c-7.8338,7.7154-19.2968,9.3472-28.2158,4.7996M0.000000,0.000000M144.000000,144.000000" fill="none" filter="url(#drawn40)" shape-rendering="geometricPrecision" stroke="#222" stroke-linecap="round" stroke-linejoin="round" stroke-width="4.000000" />
    <g transform=" translate(72,183.599999999999994)">
     <text fill="#222" filter="url(#drawn8)" font-family="DejaVu Sans Mono" font-size="30" shape-rendering="geometricPrecision" stroke="#222" stroke-linecap="round" stroke-linejoin="round" stroke-width="0.800000" text-anchor="middle" text-rendering="geometricPrecision">
<tspan x="0" y="-26.25"><tspan>Bobs</tspan></tspan><tspan x="0" y="11.25"><tspan>öffentlicher</tspan></tspan><tspan x="0" y="48.75"><tspan>Schlüssel</tspan></tspan>     </text>
    </g>
   </g>
   <path d="M -625,0 L -550,0M-737.500000,-112.500000M-437.500000,112.500000" fill="none" filter="url(#drawn40)" shape-rendering="geometricPrecision" stroke="#222" stroke-linecap="round" stroke-linejoin="round" stroke-width="4.000000" transform=" translate(-1.142857142857143,-1.142857142857143)" />
   <g transform=" translate(-550,0)">
    <path d="M 0,-5 L -7,0 L 0,5 L -7,0 L 0,-5 zM-737.500000,-112.500000M-437.500000,112.500000" fill="none" filter="url(#drawn40)" shape-rendering="geometricPrecision" stroke="#222" stroke-linecap="round" stroke-linejoin="round" stroke-width="4.000000" transform=" rotate(180) translate(-1.142857142857143,-1.142857142857143)" />
   </g>
   <path d="M -450,-150 L -450,-100M-525.000000,-225.000000M-375.000000,-25.000000" fill="none" filter="url(#drawn40)" shape-rendering="geometricPrecision" stroke="#222" stroke-linecap="round" stroke-linejoin="round" stroke-width="4.000000" transform=" translate(-1.142857142857143,-1.142857142857143)" />
   <g transform=" translate(-450,-100)">
    <path d="M 0,-5 L -7,0 L 0,5 L -7,0 L 0,-5 zM-525.000000,-225.000000M-375.000000,-25.000000" fill="none" filter="url(#drawn40)" shape-rendering="geometricPrecision" stroke="#222" stroke-linecap="round" stroke-linejoin="round" stroke-width="4.000000" transform=" rotate(270.000000002572392) translate(-1.142857142857143,-1.142857142857143)" />
   </g>
   <path d="M -450,100 L -450,150M-525.000000,25.000000M-375.000000,225.000000" fill="none" filter="url(#drawn40)" shape-rendering="geometricPrecision" stroke="#222" stroke-linecap="round" stroke-linejoin="round" stroke-width="4.000000" transform=" translate(-1.142857142857143,-1.142857142857143)" />
   <g transform=" translate(-450,150)">
    <path d="M 0,-5 L -7,0 L 0,5 L -7,0 L 0,-5 zM-525.000000,25.000000M-375.000000,225.000000" fill="none" filter="url(#drawn40)" shape-rendering="geometricPrecision" stroke="#222" stroke-linecap="round" stroke-linejoin="round" stroke-width="4.000000" transform=" rotate(270.000000002572392) translate(-1.142857142857143,-1.142857142857143)" />
   </g>
   <path d="M 625,0 L 550,0M437.500000,-112.500000M737.500000,112.500000" fill="none" filter="url(#drawn40)" shape-rendering="geometricPrecision" stroke="#222" stroke-linecap="round" stroke-linejoin="round" stroke-width="4.000000" transform=" translate(-1.142857142857143,-1.142857142857143)" />
   <g transform=" translate(550,0)">
    <path d="M 0,-5 L -7,0 L 0,5 L -7,0 L 0,-5 zM437.500000,-112.500000M737.500000,112.500000" fill="none" filter="url(#drawn40)" shape-rendering="geometricPrecision" stroke="#222" stroke-linecap="round" stroke-linejoin="round" stroke-width="4.000000" transform=" rotate(360.000000005144727) translate(-1.142857142857143,-1.142857142857143)" />
   </g>
   <path d="M 450,-150 L 450,-100M375.000000,-225.000000M525.000000,-25.000000" fill="none" filter="url(#drawn40)" shape-rendering="geometricPrecision" stroke="#222" stroke-linecap="round" stroke-linejoin="round" stroke-width="4.000000" transform=" translate(-1.142857142857143,-1.142857142857143)" />
   <g transform=" translate(450,-100)">
    <path d="M 0,-5 L -7,0 L 0,5 L -7,0 L 0,-5 zM375.000000,-225.000000M525.000000,-25.000000" fill="none" filter="url(#drawn40)" shape-rendering="geometricPrecision" stroke="#222" stroke-linecap="round" stroke-linejoin="round" stroke-width="4.000000" transform=" rotate(270.000000002572392) translate(-1.142857142857143,-1.142857142857143)" />
   </g>
   <path d="M 450,100 L 450,150M375.000000,25.000000M525.000000,225.000000" fill="none" filter="url(#drawn40)" shape-rendering="geometricPrecision" stroke="#222" stroke-linecap="round" stroke-linejoin="round" stroke-width="4.000000" transform=" translate(-1.142857142857143,-1.142857142857143)" />
   <g transform=" translate(450,150)">
    <path d="M 0,-5 L -7,0 L 0,5 L -7,0 L 0,-5 zM375.000000,25.000000M525.000000,225.000000" fill="none" filter="url(#drawn40)" shape-rendering="geometricPrecision" stroke="#222" stroke-linecap="round" stroke-linejoin="round" stroke-width="4.000000" transform=" rotate(270.000000002572392) translate(-1.142857142857143,-1.142857142857143)" />
   </g>
   <path d="M -300,350 C -200,350 -200,350 -100,175M-600.000000,-125.000000M200.000000,650.000000" fill="none" filter="url(#drawn40)" shape-rendering="geometricPrecision" stroke="#222" stroke-linecap="round" stroke-linejoin="round" stroke-width="4.000000" transform=" translate(-1.142857142857143,-1.142857142857143)" />
   <g transform=" translate(-100,175)">
    <path d="M 0,-5 L -7,0 L 0,5 L -7,0 L 0,-5 zM-462.500000,-87.500000M162.500000,612.500000" fill="none" filter="url(#drawn40)" shape-rendering="geometricPrecision" stroke="#222" stroke-linecap="round" stroke-linejoin="round" stroke-width="4.000000" transform=" rotate(119.744881295219983) translate(-1.142857142857143,-1.142857142857143)" />
   </g>
   <path d="M 100,-175 C 200,-350 200,-350 300,-350M-200.000000,-650.000000M600.000000,125.000000" fill="none" filter="url(#drawn40)" shape-rendering="geometricPrecision" stroke="#222" stroke-linecap="round" stroke-linejoin="round" stroke-width="4.000000" transform=" translate(-1.142857142857143,-1.142857142857143)" />
   <g transform=" translate(300,-350)">
    <path d="M 0,-5 L -7,0 L 0,5 L -7,0 L 0,-5 zM50.000000,-500.000000M450.000000,-200.000000" fill="none" filter="url(#drawn40)" shape-rendering="geometricPrecision" stroke="#222" stroke-linecap="round" stroke-linejoin="round" stroke-width="4.000000" transform=" rotate(180) translate(-1.142857142857143,-1.142857142857143)" />
   </g>
  </g>
 </g>
</svg>
