<?xml version="1.0" standalone="no"?>
<svg baseProfile="full" height="1053.437173855581705" version="1.1" width="1612" xmlns="http://www.w3.org/2000/svg" xmlns:xlinkns="http://www.w3.org/1999/xlink">
 <defs>
  <filter id="drawn20">
   <feTurbulence baseFrequency="0.03" numOctaves="10" result="n1" seed="42" type="fractalNoise" />
   <feTurbulence baseFrequency="0.10" numOctaves="10" result="n2" seed="161" type="fractalNoise" />
   <feComposite in="n1" in2="n2" operator="in" result="n0" />
   <feGaussianBlur in="n0" result="n" stdDeviation="1.000000" />
   <feDisplacementMap in="SourceGraphic" in2="n" scale="2.000000" />
  </filter>
  <filter id="drawn30">
   <feTurbulence baseFrequency="0.03" numOctaves="10" result="n1" seed="42" type="fractalNoise" />
   <feTurbulence baseFrequency="0.10" numOctaves="10" result="n2" seed="161" type="fractalNoise" />
   <feComposite in="n1" in2="n2" operator="in" result="n0" />
   <feGaussianBlur in="n0" result="n" stdDeviation="1.500000" />
   <feDisplacementMap in="SourceGraphic" in2="n" scale="3.000000" />
  </filter>
  <filter id="drawn35">
   <feTurbulence baseFrequency="0.03" numOctaves="10" result="n1" seed="42" type="fractalNoise" />
   <feTurbulence baseFrequency="0.10" numOctaves="10" result="n2" seed="161" type="fractalNoise" />
   <feComposite in="n1" in2="n2" operator="in" result="n0" />
   <feGaussianBlur in="n0" result="n" stdDeviation="1.750000" />
   <feDisplacementMap in="SourceGraphic" in2="n" scale="3.500000" />
  </filter>
  <filter id="drawn8">
   <feTurbulence baseFrequency="0.03" numOctaves="10" result="n1" seed="42" type="fractalNoise" />
   <feTurbulence baseFrequency="0.10" numOctaves="10" result="n2" seed="161" type="fractalNoise" />
   <feComposite in="n1" in2="n2" operator="in" result="n0" />
   <feGaussianBlur in="n0" result="n" stdDeviation="0.400000" />
   <feDisplacementMap in="SourceGraphic" in2="n" scale="0.800000" />
  </filter>
  <filter id="drawn40">
   <feTurbulence baseFrequency="0.03" numOctaves="10" result="n1" seed="42" type="fractalNoise" />
   <feTurbulence baseFrequency="0.10" numOctaves="10" result="n2" seed="161" type="fractalNoise" />
   <feComposite in="n1" in2="n2" operator="in" result="n0" />
   <feGaussianBlur in="n0" result="n" stdDeviation="2.000000" />
   <feDisplacementMap in="SourceGraphic" in2="n" scale="4.000000" />
  </filter>
  <filter id="drawn0">
   <feTurbulence baseFrequency="0.03" numOctaves="10" result="n1" seed="42" type="fractalNoise" />
   <feTurbulence baseFrequency="0.10" numOctaves="10" result="n2" seed="161" type="fractalNoise" />
   <feComposite in="n1" in2="n2" operator="in" result="n0" />
   <feGaussianBlur in="n0" result="n" stdDeviation="0.000000" />
   <feDisplacementMap in="SourceGraphic" in2="n" scale="0.000000" />
  </filter>
 </defs>
 <g>
  <g transform=" translate(806,526.564451429178462)">
   <g transform=" translate(-772,-422)">
    <path d="M33.834,117.8378c-0.9688,0.002-1.8204-0.705-1.9726-1.6932c-0.0822-0.5392-1.9454-13.2656,5.162-21.5508 c3.8458-4.4824,9.502-6.754,16.8144-6.754c0.3946,0,0.7814,0.1172,1.1094,0.336c6.3262,4.2168,11.3516,6.836,16.8106,6.8476h0.08 c1.1036,0,1.9982,0.8946,2,1.998c0.002,1.1036-0.8924,2-1.996,2.002c-0.002,0-0.002,0-0.004,0H71.832 c-0.0214-0.002-0.0508-0.002-0.0762,0h-0.168c-0.0292,0-0.0604,0-0.0898-0.002c-6.1972-0.0838-11.6328-2.8046-18.2538-7.1756 c-5.793,0.1132-10.2208,1.9082-13.172,5.3378c-5.912,6.873-4.2754,18.2402-4.2578,18.3554c0.166,1.09-0.584,2.1094-1.6758,2.2774 C34.0372,117.832,33.9356,117.8378,33.834,117.8378z" fill="#222" filter="url(#drawn0)" shape-rendering="geometricPrecision" stroke="none" stroke-linecap="round" stroke-linejoin="round" stroke-width="0" />
    <path d="M67.9922,110.5664c-0.588,0-1.168-0.2558-1.5626-0.75l-14.5292-18.1426c-0.6914-0.8612-0.5528-2.121,0.3106-2.8106 c0.8652-0.6972,2.123-0.5506,2.8104,0.3106l14.5294,18.1426c0.6914,0.8614,0.5528,2.1212-0.3106,2.8106 C68.871,110.4238,68.4296,110.5664,67.9922,110.5664z" fill="#222" filter="url(#drawn0)" shape-rendering="geometricPrecision" stroke="none" stroke-linecap="round" stroke-linejoin="round" stroke-width="0" />
    <path d="M66.0136,114.711c-0.1484,0-0.2988-0.0156-0.451-0.0508l-9.795-2.254c-0.5372-0.123-0.998-0.4628-1.2774-0.9394 c-0.2774-0.4746-0.3476-1.045-0.1934-1.5722l0.916-3.1212h-6.4746c-0.5018,0-0.9842-0.1894-1.3534-0.5274 c-2.8086-2.5838-3.2402-5.291-3.1074-7.1092c0.4258-5.8536,6.918-10.4454,7.6562-10.9492c0.9102-0.6232,2.1524-0.3868,2.7754,0.5234 c0.623,0.91,0.3906,2.1542-0.5196,2.7792c-1.5664,1.0762-5.6854,4.6016-5.9238,7.9434c-0.084,1.1836,0.3418,2.2812,1.3008,3.3398 h8.3184c0.6308,0,1.2226,0.297,1.6016,0.8008c0.3768,0.5058,0.494,1.1582,0.3182,1.7618l-1.0702,3.6484l7.7266,1.7774 c1.0762,0.248,1.748,1.3202,1.5,2.3984C67.748,114.084,66.9238,114.711,66.0136,114.711z" fill="#222" filter="url(#drawn0)" shape-rendering="geometricPrecision" stroke="none" stroke-linecap="round" stroke-linejoin="round" stroke-width="0" />
    <path d="m 70.2934,119.545 h 49.98 l 13.9,-32.7 h -49.98 zM0.000000,0.000000M144.000000,144.000000" fill="none" filter="url(#drawn40)" shape-rendering="geometricPrecision" stroke="#222" stroke-linecap="round" stroke-linejoin="round" stroke-width="4.000000" />
    <path d="m 48.353402,119.544998 l 21.940002,0M0.000000,0.000000M144.000000,144.000000" fill="none" filter="url(#drawn40)" shape-rendering="geometricPrecision" stroke="#222" stroke-linecap="round" stroke-linejoin="round" stroke-width="4.000000" />
    <path d="M83.9058,54.0936c0,2.2092-1.7908,4-4,4s-4-1.7908-4-4s1.7908-4,4-4C82.1146,50.0944,83.905,51.8848,83.9058,54.0936" fill="#222" filter="url(#drawn0)" shape-rendering="geometricPrecision" stroke="none" stroke-linecap="round" stroke-linejoin="round" stroke-width="0" />
    <path d="M67.9058,54.0936c0,2.2092-1.7908,4-4,4s-4-1.7908-4-4s1.7908-4,4-4C66.1146,50.0944,67.905,51.8848,67.9058,54.0936" fill="#222" filter="url(#drawn0)" shape-rendering="geometricPrecision" stroke="none" stroke-linecap="round" stroke-linejoin="round" stroke-width="0" />
    <path d="M71.9054,74.0984c-2.401-0.0232-4.7626-0.611-6.8944-1.7158c-0.988-0.494-1.3886-1.6954-0.8946-2.6836 c0.494-0.9882,1.6954-1.3886,2.6836-0.8946c3.1868,1.7186,7.0242,1.7186,10.211,0c0.988-0.494,2.1894-0.0936,2.6836,0.8946 s0.0936,2.1894-0.8946,2.6836C76.6682,73.4874,74.3064,74.0752,71.9054,74.0984z" fill="#222" filter="url(#drawn0)" shape-rendering="geometricPrecision" stroke="none" stroke-linecap="round" stroke-linejoin="round" stroke-width="0" />
    <path d="M52,73.1616c-8,0-8-12-8-26 s8-28,28-28s28,14,28,28s0,26-8,26M0.000000,0.000000M144.000000,144.000000" fill="none" filter="url(#drawn40)" shape-rendering="geometricPrecision" stroke="#222" stroke-linecap="round" stroke-linejoin="round" stroke-width="4.000000" />
    <path d="M49.873,57.1616c0,18,9.873,28,22,28 c11.873,0,22.127-10,22.127-28c0.049-3.4374-0.6328-6.8458-2-10c-6-6-14-16-14-16c-8,6-14,12-26,14.001 C52,45.1616,49.873,47.16,49.873,57.1616zM0.000000,0.000000M144.000000,144.000000" fill="none" filter="url(#drawn40)" shape-rendering="geometricPrecision" stroke="#222" stroke-linecap="round" stroke-linejoin="round" stroke-width="4.000000" />
    <path d="M82.9414,65.336h-4.0156c-3.0958,0-5.7656-1.8516-6.963-4.506c-1.1952,2.6544-3.867,4.506-6.9608,4.506h-4.0156 c-4.209,0-7.6328-3.4238-7.6328-7.6328v-2.4756h-1.3848c-1.1056,0-2-0.8956-2-2c0-1.1046,0.8944-2,2-2h3.3848 c1.1054,0,2,0.8954,2,2v4.4756c0,2.0038,1.6288,3.6328,3.6328,3.6328h4.0156c2.002,0,3.6308-1.629,3.6308-3.6328v-2.208 c0-1.1046,0.8946-2,2-2h2.6602c1.1054,0,2,0.8954,2,2v2.208c0,2.0038,1.6288,3.6328,3.6328,3.6328h4.0156 c2.002,0,3.6308-1.629,3.6308-3.6328v-4.4756c0-1.1046,0.8946-2,2-2h2.3146c1.1054,0,2,0.8954,2,2c0,1.1044-0.8946,2-2,2h-0.3146 v2.4756C90.5722,61.9122,87.1484,65.336,82.9414,65.336z" fill="#222" filter="url(#drawn0)" shape-rendering="geometricPrecision" stroke="none" stroke-linecap="round" stroke-linejoin="round" stroke-width="0" />
    <g transform=" translate(72,147.599999999999994)">
     <text fill="#222" filter="url(#drawn8)" font-family="DejaVu Sans Mono" font-size="30" shape-rendering="geometricPrecision" stroke="#222" stroke-linecap="round" stroke-linejoin="round" stroke-width="0.800000" text-anchor="middle" text-rendering="geometricPrecision">
<tspan x="0" y="11.25"><tspan>Alice</tspan></tspan>     </text>
    </g>
   </g>
   <g transform=" translate(-72,-422)">
    <path d="M92,77.9308c8,0,8-12,8-26s-8-28-28-28-28,14-28,28,0,26,8,26M0.000000,0.000000M144.000000,144.000000" fill="none" filter="url(#drawn40)" shape-rendering="geometricPrecision" stroke="#222" stroke-linecap="round" stroke-linejoin="round" stroke-width="4.000000" />
    <path d="M83.746,59.9308a4,4,0,1,1-4-4,4,4,0,0,1,4,4" fill="#222" filter="url(#drawn0)" shape-rendering="geometricPrecision" stroke="none" stroke-linecap="round" stroke-linejoin="round" stroke-width="0" />
    <path d="M67.746,59.9308a4,4,0,1,1-4-4,4,4,0,0,1,4,4" fill="#222" filter="url(#drawn0)" shape-rendering="geometricPrecision" stroke="none" stroke-linecap="round" stroke-linejoin="round" stroke-width="0" />
    <path d="M49.873,61.9308c0,18,9.873,28,22,28,11.873,0,22.127-10,22.127-28a24.2664,24.2664,0,0,0-1-10c-6-6-14-16-14-16-8,6-14,12-26,14C52,49.9308,49.873,51.9308,49.873,61.9308ZM0.000000,0.000000M144.000000,144.000000" fill="none" filter="url(#drawn40)" shape-rendering="geometricPrecision" stroke="#222" stroke-linecap="round" stroke-linejoin="round" stroke-width="4.000000" />
    <path d="M68.168,75.9308a23,23,0,0,0,7.873,0M0.000000,0.000000M144.000000,144.000000" fill="none" filter="url(#drawn40)" shape-rendering="geometricPrecision" stroke="#222" stroke-linecap="round" stroke-linejoin="round" stroke-width="4.000000" />
    <path d="M27.9356,119.9308,33.8106,97.32l-1.875-2.5-8-6-8-12a2.8284,2.8284,0,0,1,4-4l8,8c2,2,4,2,10,4s6.2616,6.4746,6,10c-1.332,17.9454-2,25.1114-2,25.1114M0.000000,0.000000M144.000000,144.000000" fill="none" filter="url(#drawn40)" shape-rendering="geometricPrecision" stroke="#222" stroke-linecap="round" stroke-linejoin="round" stroke-width="4.000000" />
    <path d="M39.9824,85.71s-2.0468-5.78-4.2344-11.78c-0.8632-2.3632-3.8124-2.0624-3.8124-0.332v7.38M0.000000,0.000000M144.000000,144.000000" fill="none" filter="url(#drawn40)" shape-rendering="geometricPrecision" stroke="#222" stroke-linecap="round" stroke-linejoin="round" stroke-width="4.000000" />
    <path d="M116.0644,119.9308,110.1894,97.32l1.875-2.5,8-6,8-12a2.8284,2.8284,0,0,0-4-4l-8,8c-2,2-4,2-10,4s-6.2616,6.4746-6,10c1.334,17.9454,2,25.1114,2,25.1114M0.000000,0.000000M144.000000,144.000000" fill="none" filter="url(#drawn40)" shape-rendering="geometricPrecision" stroke="#222" stroke-linecap="round" stroke-linejoin="round" stroke-width="4.000000" />
    <path d="M104.02,85.71s2.0448-5.78,4.2324-11.78c0.8612-2.3632,3.8124-2.0624,3.8124-0.332v7.38M0.000000,0.000000M144.000000,144.000000" fill="none" filter="url(#drawn40)" shape-rendering="geometricPrecision" stroke="#222" stroke-linecap="round" stroke-linejoin="round" stroke-width="4.000000" />
    <path d="m 46,79.930802 6,-2M0.000000,0.000000M144.000000,144.000000" fill="none" filter="url(#drawn40)" shape-rendering="geometricPrecision" stroke="#222" stroke-linecap="round" stroke-linejoin="round" stroke-width="4.000000" />
    <path d="m 92,77.930802 6.888604,2M0.000000,0.000000M144.000000,144.000000" fill="none" filter="url(#drawn40)" shape-rendering="geometricPrecision" stroke="#222" stroke-linecap="round" stroke-linejoin="round" stroke-width="4.000000" />
    <g transform=" translate(72,147.599999999999994)">
     <text fill="#222" filter="url(#drawn8)" font-family="DejaVu Sans Mono" font-size="30" shape-rendering="geometricPrecision" stroke="#222" stroke-linecap="round" stroke-linejoin="round" stroke-width="0.800000" text-anchor="middle" text-rendering="geometricPrecision">
<tspan x="0" y="11.25"><tspan>Eve</tspan></tspan>     </text>
    </g>
   </g>
   <g transform=" translate(-72,-407.600000000000023)">
    <path d="M0,0 M288,288" fill="#222" filter="url(#drawn0)" shape-rendering="geometricPrecision" stroke="none" stroke-linecap="round" stroke-linejoin="round" stroke-width="0" />
    <g transform=" translate(72,-10.800000000000001)">
     <text fill="#222" filter="url(#drawn30)" font-family="DejaVu Sans Mono" font-size="30" shape-rendering="geometricPrecision" stroke="#222" stroke-linecap="round" stroke-linejoin="round" stroke-width="3.000000" text-anchor="middle" text-rendering="geometricPrecision">
<tspan x="0" y="11.25"><tspan>???</tspan></tspan>     </text>
    </g>
   </g>
   <g transform=" translate(628,278)">
    <path d="m 49.301602,90.944198 6.977996,26.849602" fill="#222" filter="url(#drawn0)" shape-rendering="geometricPrecision" stroke="none" stroke-linecap="round" stroke-linejoin="round" stroke-width="0" />
    <path d="M109.6132,117.7754c-0.1014,0-0.203-0.0058-0.3046-0.0214c-1.0918-0.168-1.8418-1.1876-1.6758-2.2774 c0.0176-0.1152,1.6544-11.4824-4.2578-18.3556c-2.9512-3.4296-7.379-5.2246-13.1718-5.3378 c-6.6192,4.3692-12.0548,7.0898-18.252,7.1758c-0.043,0.0038-0.088,0.002-0.129,0.002c-0.0156,0-0.0272,0-0.043,0h-0.0916 c-0.0274-0.002-0.0548,0-0.0822,0c-0.0292,0-0.0586,0-0.0878-0.002c-6.2012-0.086-11.6348-2.8066-18.252-7.1758 c-5.793,0.1132-10.2206,1.9082-13.1718,5.3378c-5.9122,6.8732-4.2754,18.2404-4.2578,18.3556c0.166,1.0898-0.584,2.1094-1.6758,2.2774 c-1.0704,0.166-2.1094-0.5802-2.2774-1.672c-0.082-0.539-1.9452-13.2656,5.1622-21.5508c3.8456-4.4824,9.5018-6.7538,16.8144-6.7538 c0.3946,0,0.7812,0.1172,1.1094,0.3358c6.3046,4.2032,11.3184,6.8184,16.7656,6.8478c5.4452-0.0274,10.459-2.6426,16.7656-6.8478 c0.3282-0.2186,0.7148-0.3358,1.1094-0.3358c7.3124,0,12.9688,2.2714,16.8144,6.7538c7.1074,8.2852,5.2442,21.0118,5.1622,21.5508 C111.4336,117.0704,110.582,117.7754,109.6132,117.7754z" fill="#222" filter="url(#drawn0)" shape-rendering="geometricPrecision" stroke="none" stroke-linecap="round" stroke-linejoin="round" stroke-width="0" />
    <path d="M67.5312,117.7774c-0.666,0-1.3164-0.332-1.6952-0.9376c-3.6622-5.832-9.0314-15.127-13.8146-26.2734 c-0.4354-1.0156,0.0352-2.1914,1.049-2.627c1.0136-0.4394,2.1914,0.0332,2.6268,1.0488 c4.6818,10.9102,9.9396,20.0118,13.5254,25.7266c0.588,0.9356,0.3048,2.17-0.6308,2.756 C68.2618,117.6778,67.8946,117.7774,67.5312,117.7774z" fill="#222" filter="url(#drawn0)" shape-rendering="geometricPrecision" stroke="none" stroke-linecap="round" stroke-linejoin="round" stroke-width="0" />
    <path d="M76.4258,117.7774c-0.3632,0-0.7304-0.0996-1.0606-0.3066c-0.9356-0.586-1.2188-1.8204-0.6308-2.756 c3.586-5.7148,8.8438-14.8164,13.5254-25.7266c0.4336-1.0156,1.6132-1.4862,2.627-1.0488c1.0136,0.4356,1.4842,1.6114,1.0488,2.627 c-4.7832,11.1464-10.1524,20.4414-13.8146,26.2734C77.7422,117.4454,77.0918,117.7774,76.4258,117.7774z" fill="#222" filter="url(#drawn0)" shape-rendering="geometricPrecision" stroke="none" stroke-linecap="round" stroke-linejoin="round" stroke-width="0" />
    <path d="M45.209,117.7774c-1.1054,0-2-0.8946-2-2V91.2304c0-1.1054,0.8946-2,2-2s2,0.8946,2,2v24.547 C47.209,116.8828,46.3144,117.7774,45.209,117.7774z" fill="#222" filter="url(#drawn0)" shape-rendering="geometricPrecision" stroke="none" stroke-linecap="round" stroke-linejoin="round" stroke-width="0" />
    <path d="M98.291,117.7774c-1.1054,0-2-0.8946-2-2V91.2304c0-1.1054,0.8946-2,2-2s2,0.8946,2,2v24.547 C100.291,116.8828,99.3964,117.7774,98.291,117.7774z" fill="#222" filter="url(#drawn0)" shape-rendering="geometricPrecision" stroke="none" stroke-linecap="round" stroke-linejoin="round" stroke-width="0" />
    <path d="M79.9738,50.0642c2.22,0,4,1.8,4,4c0,2.22-1.78,4-4,4c-2.2,0-4-1.78-4-4C75.9738,51.8642,77.7738,50.0642,79.9738,50.0642z" fill="#222" filter="url(#drawn0)" shape-rendering="geometricPrecision" stroke="none" stroke-linecap="round" stroke-linejoin="round" stroke-width="0" />
    <path d="M79.7738,69.6842c0.48,0.98,0.08,2.18-0.9,2.68c-2.28,1.14-4.6,1.72-6.9,1.72s-4.6-0.58-6.88-1.72 c-1-0.5-1.4-1.7-0.9-2.68c0.48-1,1.68-1.4,2.68-0.9c3.44,1.72,6.78,1.72,10.22,0 C78.0738,68.2842,79.2738,68.6842,79.7738,69.6842z" fill="#222" filter="url(#drawn0)" shape-rendering="geometricPrecision" stroke="none" stroke-linecap="round" stroke-linejoin="round" stroke-width="0" />
    <path d="M63.9738,50.0642c2.22,0,4,1.8,4,4c0,2.22-1.78,4-4,4c-2.2,0-4-1.78-4-4C59.9738,51.8642,61.7738,50.0642,63.9738,50.0642z" fill="#222" filter="url(#drawn0)" shape-rendering="geometricPrecision" stroke="none" stroke-linecap="round" stroke-linejoin="round" stroke-width="0" />
    <path d="M52.6538,41.9842c-0.94,1.9-1.7,3.96-2.26,6.14 c-0.72,2.72-1.1,5.64-1.1,8.66c0,15.66,10.16,28.36,22.68,28.36s22.68-12.7,22.68-28.36c0-2.3-0.22-4.56-0.64-6.72 c-0.12-0.66-0.28-1.32-0.44-1.96c-0.56-2.16-1.32-4.22-2.26-6.12M0.000000,0.000000M144.000000,144.000000" fill="none" filter="url(#drawn40)" shape-rendering="geometricPrecision" stroke="#222" stroke-linecap="round" stroke-linejoin="round" stroke-width="4.000000" />
    <path d="M52.6538,41.9842c-1.18,0.34-2.24,0.7-3.18,1.06c-3.48,1.28-5.3,2.44-5.3,2.44M0.000000,0.000000M144.000000,144.000000" fill="none" filter="url(#drawn40)" shape-rendering="geometricPrecision" stroke="#222" stroke-linecap="round" stroke-linejoin="round" stroke-width="4.000000" />
    <path d="m 52.6538,41.9642 v 0.02M0.000000,0.000000M144.000000,144.000000" fill="none" filter="url(#drawn40)" shape-rendering="geometricPrecision" stroke="#222" stroke-linecap="round" stroke-linejoin="round" stroke-width="4.000000" />
    <path d="M99.7738,45.4842c0,0-2.06-1.32-6-2.72c-0.76-0.26-1.58-0.52-2.46-0.78c-4.22-1.24-9.98-2.32-17.12-2.32 c-0.68,0-1.36,0.02-2.06,0.04h-0.32c-0.06,0-0.12-0.02-0.16,0c-8.04-0.22-14.42,0.94-19,2.26M0.000000,0.000000M144.000000,144.000000" fill="none" filter="url(#drawn40)" shape-rendering="geometricPrecision" stroke="#222" stroke-linecap="round" stroke-linejoin="round" stroke-width="4.000000" />
    <path d="M80.0938,22.6042v-0.16c-1.26-4.14-12.82-5.62-16,0l-0.12,12.08h10.22h5.78L80.0938,22.6042zM0.000000,0.000000M144.000000,144.000000" fill="none" filter="url(#drawn40)" shape-rendering="geometricPrecision" stroke="#222" stroke-linecap="round" stroke-linejoin="round" stroke-width="4.000000" />
    <path d="M49.2938,42.5642c0,0,0.1-18.4,14.8-20.12M0.000000,0.000000M144.000000,144.000000" fill="none" filter="url(#drawn40)" shape-rendering="geometricPrecision" stroke="#222" stroke-linecap="round" stroke-linejoin="round" stroke-width="4.000000" />
    <path d="M93.8538,42.5642c0,0-0.08-17.54-13.76-19.96 c-0.32-0.06-0.68-0.12-1.02-0.16M0.000000,0.000000M144.000000,144.000000" fill="none" filter="url(#drawn40)" shape-rendering="geometricPrecision" stroke="#222" stroke-linecap="round" stroke-linejoin="round" stroke-width="4.000000" />
    <path d="M72.1338,39.7042 c0,0-0.08,0.08-0.24,0.22c-1.84,1.58-13.74,11.46-20.44,8.62l-1.06-0.42h-0.02M0.000000,0.000000M144.000000,144.000000" fill="none" filter="url(#drawn40)" shape-rendering="geometricPrecision" stroke="#222" stroke-linecap="round" stroke-linejoin="round" stroke-width="4.000000" />
    <path d="M71.6538,39.7042 c0,0,0.08,0.08,0.24,0.22c1.84,1.58,13.74,11.46,20.44,8.62l1.24-0.44M0.000000,0.000000M144.000000,144.000000" fill="none" filter="url(#drawn40)" shape-rendering="geometricPrecision" stroke="#222" stroke-linecap="round" stroke-linejoin="round" stroke-width="4.000000" />
    <g transform=" translate(72,147.599999999999994)">
     <text fill="#222" filter="url(#drawn8)" font-family="DejaVu Sans Mono" font-size="30" shape-rendering="geometricPrecision" stroke="#222" stroke-linecap="round" stroke-linejoin="round" stroke-width="0.800000" text-anchor="middle" text-rendering="geometricPrecision">
<tspan x="0" y="11.25"><tspan>Bob</tspan></tspan>     </text>
    </g>
   </g>
   <g transform=" translate(628,292.399999999999977)">
    <path d="M0,0 M288,288" fill="#222" filter="url(#drawn0)" shape-rendering="geometricPrecision" stroke="none" stroke-linecap="round" stroke-linejoin="round" stroke-width="0" />
    <g transform=" translate(72,-10.800000000000001)">
     <text fill="#222" filter="url(#drawn30)" font-family="DejaVu Sans Mono" font-size="30" shape-rendering="geometricPrecision" stroke="#222" stroke-linecap="round" stroke-linejoin="round" stroke-width="3.000000" text-anchor="middle" text-rendering="geometricPrecision">
<tspan x="0" y="11.25"><tspan>!!!</tspan></tspan>     </text>
    </g>
   </g>
   <g transform=" translate(-1.293308155139158,1.063533323476321)">
    <path d="M 199.966402929776223,2.749310071834082 Q 232.003316212917667,35.113324724413346 183.538523081524659,59.593673586984991 Q 200.662873075617085,110.421319608565312 133.129757121635578,111.939774521449948 Q 118.408533923072241,153.212928163601163 62.127830475766906,142.579187235411695 Q 6.002436948619158,185.517513074155005 -36.824288755950775,147.435525276848807 Q -84.219028434444112,145.960717808013356 -115.8575782982996,122.26845309545314 Q -152.7689788464522,118.160664663847413 -166.03704583121015,83.623148224938873 Q -227.675458937373065,66.582285314129265 -197.369981342038159,24.245894221227971 Q -234.561812348523461,8.343430029822166 -197.379786619497906,-24.200953630969227 Q -215.631455333208919,-78.285984490314462 -157.966027875533285,-91.998847253320292 Q -161.858993736411918,-117.71373893683959 -111.496472245910525,-124.528317585412111 Q -67.700151351153238,-172.779065520018605 -15.262508722541334,-149.562591923801477 Q 30.960470191604049,-172.833173677484922 67.261083321870842,-141.26294631672593 Q 120.666437818516343,-158.682185084049223 133.038336742857183,-112.000895255977539 Q 188.508842549457228,-100.30123335623469 183.615652614062611,-59.459875670492558 Q 253.197052304051567,-36.739692385499907 199.966402929776223,2.749310071834082 z" fill="none" filter="url(#drawn20)" shape-rendering="geometricPrecision" stroke="#222" stroke-linecap="round" stroke-linejoin="round" stroke-width="2.000000" transform="" />
    <text fill="#222" filter="url(#drawn35)" font-family="DejaVu Sans Mono" font-size="35" shape-rendering="geometricPrecision" stroke="#222" stroke-linecap="round" stroke-linejoin="round" stroke-width="3.500000" text-anchor="middle" text-rendering="geometricPrecision">
<tspan x="0" y="-8.75"><tspan>ungesichertes</tspan></tspan><tspan x="0" y="35"><tspan>Internet</tspan></tspan>    </text>
   </g>
   <g transform=" translate(-555.296090103068764,-183.5)">
    <path d="M 0,0 C 3.193957959306903,0.112832925421032 6.063352524439051,-0.090936075970195 21.774857240963254,-0.074232632620553 C 115.884990448219,-2.357601789860711 142.984293350729672,-1.138660715575001 210,0 C 211.059937003376604,-25.610964335377535 207.846112699420047,-93.811948724140763 210.718402397364343,-171.17771750043164 C 209.677812632198027,-231.719877786927441 210.171588693869637,-239.130438344533587 210,-257 C 200.985201111821766,-264.935207231274831 199.408732601323464,-267.536091627741087 188.206484425610711,-278.863749500891345 C 180.377265546397069,-287.142529497894827 175.716444434377394,-291.654686054966987 170,-297 C 133.120975670244718,-295.291096327916023 99.849899090893601,-296.394284944639764 74.854075160193261,-296.878821605613496 C 57.099275991463237,-296.337010696215032 19.891436215922408,-294.933610794260801 0,-297 C -0.163889358008836,-270.198440407605915 -2.269336569001104,-232.593343779569267 -0.126222191226721,-216.804586712763239 C 1.704041311504889,-177.631782526578348 0.480410317810081,-149.552038215119666 0,0" fill="#eee" shape-rendering="geometricPrecision" stroke="none" />
    <g transform=" translate(17.793777808773282,-267.079999999999984)">
     <text fill="#222" filter="url(#drawn20)" font-family="DejaVu Sans Mono" font-size="20" shape-rendering="geometricPrecision" stroke="#222" stroke-linecap="round" stroke-linejoin="round" stroke-width="2.000000" text-anchor="start" text-rendering="geometricPrecision">
<tspan x="0" y="7.5"><tspan>Hi Bob,</tspan></tspan>     </text>
     <g transform=" translate(0,120)">
      <text fill="#222" filter="url(#drawn20)" font-family="DejaVu Sans Mono" font-size="20" shape-rendering="geometricPrecision" stroke="#222" stroke-linecap="round" stroke-linejoin="round" stroke-width="2.000000" text-anchor="start" text-rendering="geometricPrecision">
<tspan x="0" y="-67.5"><tspan>ich schreibe D</tspan></tspan><tspan x="0" y="-42.5"><tspan>ir um mitzutei</tspan></tspan><tspan x="0" y="-17.5"><tspan>len, dass wir </tspan></tspan><tspan x="0" y="7.5"><tspan>das Gruppentre</tspan></tspan><tspan x="0" y="32.5"><tspan>ffen auf Überm</tspan></tspan><tspan x="0" y="57.5"><tspan>orgen verschob</tspan></tspan><tspan x="0" y="82.5"><tspan>en haben.</tspan></tspan>      </text>
     </g>
     <g transform=" translate(0,240)">
      <text fill="#222" filter="url(#drawn20)" font-family="DejaVu Sans Mono" font-size="20" shape-rendering="geometricPrecision" stroke="#222" stroke-linecap="round" stroke-linejoin="round" stroke-width="2.000000" text-anchor="start" text-rendering="geometricPrecision">
<tspan x="0" y="7.5"><tspan>Gruß, Alice</tspan></tspan>      </text>
     </g>
    </g>
    <path d="M 210,-257 C 208.214030071332132,-256.929074266903285 205.335928936724741,-256.896830110168878 196.708674352445513,-256.936654879690366 C 182.98386120715432,-257.377210386509603 178.973428579807063,-257.175619986747847 170,-257 C 169.92098460584063,-259.481259623385995 169.916881830049959,-263.807666084489028 170.140300810840358,-275.96976272321092 C 169.995457173238975,-279.607210845056329 170.679552811639525,-290.02435526651027 170,-297" fill="#eee" shape-rendering="geometricPrecision" stroke="none" />
    <path d="M 0,0 C 3.193957959306903,0.112832925421032 6.063352524439051,-0.090936075970195 21.774857240963254,-0.074232632620553 C 115.884990448219,-2.357601789860711 142.984293350729672,-1.138660715575001 210,0 C 211.059937003376604,-25.610964335377535 207.846112699420047,-93.811948724140763 210.718402397364343,-171.17771750043164 C 209.677812632198027,-231.719877786927441 210.171588693869637,-239.130438344533587 210,-257 C 200.985201111821766,-264.935207231274831 199.408732601323464,-267.536091627741087 188.206484425610711,-278.863749500891345 C 180.377265546397069,-287.142529497894827 175.716444434377394,-291.654686054966987 170,-297 C 133.120975670244718,-295.291096327916023 99.849899090893601,-296.394284944639764 74.854075160193261,-296.878821605613496 C 57.099275991463237,-296.337010696215032 19.891436215922408,-294.933610794260801 0,-297 C -0.163889358008836,-270.198440407605915 -2.269336569001104,-232.593343779569267 -0.126222191226721,-216.804586712763239 C 1.704041311504889,-177.631782526578348 0.480410317810081,-149.552038215119666 0,0" fill="none" filter="url(#drawn20)" shape-rendering="geometricPrecision" stroke="#222" stroke-linecap="round" stroke-linejoin="round" stroke-width="2.000000" />
    <path d="M 210,-257 C 208.214030071332132,-256.929074266903285 205.335928936724741,-256.896830110168878 196.708674352445513,-256.936654879690366 C 182.98386120715432,-257.377210386509603 178.973428579807063,-257.175619986747847 170,-257 C 169.92098460584063,-259.481259623385995 169.916881830049959,-263.807666084489028 170.140300810840358,-275.96976272321092 C 169.995457173238975,-279.607210845056329 170.679552811639525,-290.02435526651027 170,-297" fill="none" filter="url(#drawn20)" shape-rendering="geometricPrecision" stroke="#222" stroke-linecap="round" stroke-linejoin="round" stroke-width="2.000000" />
    <g transform=" translate(105.296090103068821,-315)">
     <text fill="#222" filter="url(#drawn30)" font-family="DejaVu Sans Mono" font-size="30" shape-rendering="geometricPrecision" stroke="#222" stroke-linecap="round" stroke-linejoin="round" stroke-width="3.000000" text-anchor="middle" text-rendering="geometricPrecision">
<tspan x="0" y="11.25"><tspan>Klartext</tspan></tspan>     </text>
    </g>
   </g>
   <g transform=" translate(345,516.439501455157028)">
    <path d="M 0,0 C 20.404155861993164,0.384299318966133 107.593290012117166,-3.940398850876274 143.306515229708225,0.120997089685941 C 159.042433094599659,0.924318117626051 172.861293935770703,0.723904738793004 210,0 C 208.997884581270654,-19.596179707118313 210.068080257096653,-24.979448568342455 209.639893354274875,-63.783093437969988 C 209.329907017498783,-131.370093055202233 208.665921867888983,-213.147182332135884 210,-257 C 200.7437864742285,-265.734523705209654 196.287620977869949,-270.918313960669366 181.343660962144241,-285.840801805393596 C 180.066734082231932,-287.200979712075764 175.027025042269088,-292.121231027512295 170,-297 C 153.459776996425489,-297.065026756874772 146.875198166343154,-297.205112627513586 104.783926501184197,-296.657985827534048 C 91.641841401134187,-296.916613119977967 71.076360064212025,-297.289511069111086 0,-297 C -4.368068208365541,-198.01529923484361 3.13111739099865,-157.533254243282698 1.009684410810401,-113.247094494556293 C 0.077441941429828,-95.092052360177874 2.676337538613608,-22.914247445063985 0,0" fill="#eee" shape-rendering="geometricPrecision" stroke="none" />
    <g transform=" translate(17.920000000000002,-267.079999999999984)">
     <text fill="#222" filter="url(#drawn20)" font-family="DejaVu Sans Mono" font-size="20" shape-rendering="geometricPrecision" stroke="#222" stroke-linecap="round" stroke-linejoin="round" stroke-width="2.000000" text-anchor="start" text-rendering="geometricPrecision">
<tspan x="0" y="7.5"><tspan>Hi Bob,</tspan></tspan>     </text>
     <g transform=" translate(0,120)">
      <text fill="#222" filter="url(#drawn20)" font-family="DejaVu Sans Mono" font-size="20" shape-rendering="geometricPrecision" stroke="#222" stroke-linecap="round" stroke-linejoin="round" stroke-width="2.000000" text-anchor="start" text-rendering="geometricPrecision">
<tspan x="0" y="-67.5"><tspan>ich schreibe D</tspan></tspan><tspan x="0" y="-42.5"><tspan>ir um mitzutei</tspan></tspan><tspan x="0" y="-17.5"><tspan>len, dass wir </tspan></tspan><tspan x="0" y="7.5"><tspan>das Gruppentre</tspan></tspan><tspan x="0" y="32.5"><tspan>ffen auf Überm</tspan></tspan><tspan x="0" y="57.5"><tspan>orgen verschob</tspan></tspan><tspan x="0" y="82.5"><tspan>en haben.</tspan></tspan>      </text>
     </g>
     <g transform=" translate(0,240)">
      <text fill="#222" filter="url(#drawn20)" font-family="DejaVu Sans Mono" font-size="20" shape-rendering="geometricPrecision" stroke="#222" stroke-linecap="round" stroke-linejoin="round" stroke-width="2.000000" text-anchor="start" text-rendering="geometricPrecision">
<tspan x="0" y="7.5"><tspan>Gruß, Alice</tspan></tspan>      </text>
     </g>
    </g>
    <path d="M 210,-257 C 200.031932219217055,-256.888251576248024 194.611654792411883,-256.955647934776323 188.709225861957577,-257.056922438656443 C 180.398239384846278,-257.348387703327944 175.368187685961715,-256.885891776013295 170,-257 C 170.018935973410436,-258.108181898061559 170.010251706414465,-258.948483402110469 170.066353883851519,-266.466337906500655 C 170.466956471097888,-274.605313947180321 169.680932674660909,-287.326187508422606 170,-297" fill="#eee" shape-rendering="geometricPrecision" stroke="none" />
    <path d="M 0,0 C 20.404155861993164,0.384299318966133 107.593290012117166,-3.940398850876274 143.306515229708225,0.120997089685941 C 159.042433094599659,0.924318117626051 172.861293935770703,0.723904738793004 210,0 C 208.997884581270654,-19.596179707118313 210.068080257096653,-24.979448568342455 209.639893354274875,-63.783093437969988 C 209.329907017498783,-131.370093055202233 208.665921867888983,-213.147182332135884 210,-257 C 200.7437864742285,-265.734523705209654 196.287620977869949,-270.918313960669366 181.343660962144241,-285.840801805393596 C 180.066734082231932,-287.200979712075764 175.027025042269088,-292.121231027512295 170,-297 C 153.459776996425489,-297.065026756874772 146.875198166343154,-297.205112627513586 104.783926501184197,-296.657985827534048 C 91.641841401134187,-296.916613119977967 71.076360064212025,-297.289511069111086 0,-297 C -4.368068208365541,-198.01529923484361 3.13111739099865,-157.533254243282698 1.009684410810401,-113.247094494556293 C 0.077441941429828,-95.092052360177874 2.676337538613608,-22.914247445063985 0,0" fill="none" filter="url(#drawn20)" shape-rendering="geometricPrecision" stroke="#222" stroke-linecap="round" stroke-linejoin="round" stroke-width="2.000000" />
    <path d="M 210,-257 C 200.031932219217055,-256.888251576248024 194.611654792411883,-256.955647934776323 188.709225861957577,-257.056922438656443 C 180.398239384846278,-257.348387703327944 175.368187685961715,-256.885891776013295 170,-257 C 170.018935973410436,-258.108181898061559 170.010251706414465,-258.948483402110469 170.066353883851519,-266.466337906500655 C 170.466956471097888,-274.605313947180321 169.680932674660909,-287.326187508422606 170,-297" fill="none" filter="url(#drawn20)" shape-rendering="geometricPrecision" stroke="#222" stroke-linecap="round" stroke-linejoin="round" stroke-width="2.000000" />
    <g transform=" translate(105,-315)">
     <text fill="#222" filter="url(#drawn30)" font-family="DejaVu Sans Mono" font-size="30" shape-rendering="geometricPrecision" stroke="#222" stroke-linecap="round" stroke-linejoin="round" stroke-width="3.000000" text-anchor="middle" text-rendering="geometricPrecision">
<tspan x="0" y="11.25"><tspan>Klartext</tspan></tspan>     </text>
    </g>
   </g>
   <g transform=" translate(-554.850708897304685,516.563841101648109)">
    <path d="M 0,0 C 7.623771928969459,-0.262778618014176 23.790640191743723,-0.002535632481105 69.234160659981242,0.308881324755123 C 115.06781488117548,1.459520493071066 143.256723879153611,1.676835975156458 210,0 C 208.987424539706922,-27.25932222257391 210.196186641386419,-85.729663092032538 209.978117945238154,-128.895729483564651 C 210.131452876277308,-152.708309642356966 211.629236098243439,-190.253290008111207 210,-257 C 204.518639955379797,-262.759409257612504 189.529636442643408,-276.092816707748455 180.901497734299795,-286.104310658214388 C 178.889045693861675,-287.999182446218867 178.328445144532765,-288.634371546614943 170,-297 C 139.19654310194025,-295.83627813984674 107.436098593691455,-296.919402880644782 79.250691425968554,-297.436563528051295 C 35.115440922674466,-295.5851607229244 31.031589681079154,-297.38533473439503 0,-297 C -2.598730785388138,-242.690664072635087 2.355706093395305,-201.129486023386875 -0.298582205390615,-132.433525321708686 C -0.453516418508382,-64.973641274440325 0.079535592566995,-60.943618824118161 0,0" fill="#eee" shape-rendering="geometricPrecision" stroke="none" />
    <g transform=" translate(17.621417794609386,-279.516563528051279)">
     <g transform=" translate(0,132)">
      <text fill="#222" filter="url(#drawn20)" font-family="DejaVu Sans Mono" font-size="20" shape-rendering="geometricPrecision" stroke="#222" stroke-linecap="round" stroke-linejoin="round" stroke-width="2.000000" text-anchor="start" text-rendering="geometricPrecision">
<tspan x="0" y="-117.5"><tspan>SGkgQm9iLAppY2</tspan></tspan><tspan x="0" y="-92.5"><tspan>ggc2NocmVpYmUg</tspan></tspan><tspan x="0" y="-67.5"><tspan>RGlyIHVtIG1pdH</tspan></tspan><tspan x="0" y="-42.5"><tspan>p1dGVpbGVuLCBk</tspan></tspan><tspan x="0" y="-17.5"><tspan>YXNzIHdpciBkYX</tspan></tspan><tspan x="0" y="7.5"><tspan>MgR3J1cHBlbnRy</tspan></tspan><tspan x="0" y="32.5"><tspan>ZWZmZW4gYXVmI8</tspan></tspan><tspan x="0" y="57.5"><tspan>KcYmVybW9yZ2Vu</tspan></tspan><tspan x="0" y="82.5"><tspan>IHZlcnNjaG9iZW</tspan></tspan><tspan x="0" y="107.5"><tspan>4gaGFiZW4uCkdy</tspan></tspan><tspan x="0" y="132.5"><tspan>dMKfLCBBbGljZQ</tspan></tspan>      </text>
     </g>
    </g>
    <path d="M 210,-257 C 202.792011274107011,-257.248644444230536 199.187569016923192,-256.974918332704362 192.00880185221331,-256.98042537551629 C 186.560393808307481,-257.216112140190432 179.846758432414759,-256.83339960678552 170,-257 C 169.900144115966384,-263.361720271835111 169.695772843070301,-269.686969074877595 169.860777866642565,-280.876821150194473 C 170.047278878260499,-289.575428973476733 170.070715040724195,-293.068016054366751 170,-297" fill="#eee" shape-rendering="geometricPrecision" stroke="none" />
    <path d="M 0,0 C 7.623771928969459,-0.262778618014176 23.790640191743723,-0.002535632481105 69.234160659981242,0.308881324755123 C 115.06781488117548,1.459520493071066 143.256723879153611,1.676835975156458 210,0 C 208.987424539706922,-27.25932222257391 210.196186641386419,-85.729663092032538 209.978117945238154,-128.895729483564651 C 210.131452876277308,-152.708309642356966 211.629236098243439,-190.253290008111207 210,-257 C 204.518639955379797,-262.759409257612504 189.529636442643408,-276.092816707748455 180.901497734299795,-286.104310658214388 C 178.889045693861675,-287.999182446218867 178.328445144532765,-288.634371546614943 170,-297 C 139.19654310194025,-295.83627813984674 107.436098593691455,-296.919402880644782 79.250691425968554,-297.436563528051295 C 35.115440922674466,-295.5851607229244 31.031589681079154,-297.38533473439503 0,-297 C -2.598730785388138,-242.690664072635087 2.355706093395305,-201.129486023386875 -0.298582205390615,-132.433525321708686 C -0.453516418508382,-64.973641274440325 0.079535592566995,-60.943618824118161 0,0" fill="none" filter="url(#drawn20)" shape-rendering="geometricPrecision" stroke="#222" stroke-linecap="round" stroke-linejoin="round" stroke-width="2.000000" />
    <path d="M 210,-257 C 202.792011274107011,-257.248644444230536 199.187569016923192,-256.974918332704362 192.00880185221331,-256.98042537551629 C 186.560393808307481,-257.216112140190432 179.846758432414759,-256.83339960678552 170,-257 C 169.900144115966384,-263.361720271835111 169.695772843070301,-269.686969074877595 169.860777866642565,-280.876821150194473 C 170.047278878260499,-289.575428973476733 170.070715040724195,-293.068016054366751 170,-297" fill="none" filter="url(#drawn20)" shape-rendering="geometricPrecision" stroke="#222" stroke-linecap="round" stroke-linejoin="round" stroke-width="2.000000" />
    <g transform=" translate(104.850708897304685,-315.436563528051295)">
     <text fill="#222" filter="url(#drawn30)" font-family="DejaVu Sans Mono" font-size="30" shape-rendering="geometricPrecision" stroke="#222" stroke-linecap="round" stroke-linejoin="round" stroke-width="3.000000" text-anchor="middle" text-rendering="geometricPrecision">
<tspan x="0" y="11.25"><tspan>Krypttext</tspan></tspan>     </text>
    </g>
   </g>
   <g transform=" translate(345,-183.43554857082151)">
    <path d="M 0,0 C 36.330149556075476,1.317957837313676 45.988005274222836,-0.455060567304222 136.481701818887046,-0.297126643682196 C 160.585818495726926,-1.064942987778161 188.57815933132207,-1.245680264219895 210,0 C 209.453508078669472,-24.901025431003305 209.806846764625078,-34.731222655573902 209.583312356772552,-84.430090285489783 C 211.250702419781902,-112.049226706142804 205.981141341717489,-179.787303985765533 210,-257 C 208.990502233754086,-257.941721923473267 206.531477520188304,-260.220088430845237 202.171416711003104,-264.807078528476779 C 198.826138487137115,-268.57800054661493 185.540513659770966,-280.186705612856542 170,-297 C 126.600716271019536,-298.662104703214482 119.416496003739326,-297.299987969634799 101.58494458007435,-297.12890285835698 C 53.421087786610585,-297.452733333498088 41.073972078978542,-296.267012501779845 0,-297 C 0.758222337327001,-254.908966950997296 0.94837740478512,-232.842067435595766 0.45124841483086,-180.892686809482058 C 0.831180032267639,-147.50413977835251 -3.327217108550261,-86.919918150052936 0,0" fill="#eee" shape-rendering="geometricPrecision" stroke="none" />
    <g transform=" translate(17.920000000000002,-279.208902858356964)">
     <g transform=" translate(0,132)">
      <text fill="#222" filter="url(#drawn20)" font-family="DejaVu Sans Mono" font-size="20" shape-rendering="geometricPrecision" stroke="#222" stroke-linecap="round" stroke-linejoin="round" stroke-width="2.000000" text-anchor="start" text-rendering="geometricPrecision">
<tspan x="0" y="-117.5"><tspan>SGkgQm9iLAppY2</tspan></tspan><tspan x="0" y="-92.5"><tspan>ggc2NocmVpYmUg</tspan></tspan><tspan x="0" y="-67.5"><tspan>RGlyIHVtIG1pdH</tspan></tspan><tspan x="0" y="-42.5"><tspan>p1dGVpbGVuLCBk</tspan></tspan><tspan x="0" y="-17.5"><tspan>YXNzIHdpciBkYX</tspan></tspan><tspan x="0" y="7.5"><tspan>MgR3J1cHBlbnRy</tspan></tspan><tspan x="0" y="32.5"><tspan>ZWZmZW4gYXVmI8</tspan></tspan><tspan x="0" y="57.5"><tspan>KcYmVybW9yZ2Vu</tspan></tspan><tspan x="0" y="82.5"><tspan>IHZlcnNjaG9iZW</tspan></tspan><tspan x="0" y="107.5"><tspan>4gaGFiZW4uCkdy</tspan></tspan><tspan x="0" y="132.5"><tspan>dMKfLCBBbGljZQ</tspan></tspan>      </text>
     </g>
    </g>
    <path d="M 210,-257 C 207.57716566147144,-257.107531814071592 207.052107038751984,-257.003929767494924 201.437603846182299,-257.016500158436827 C 185.028654451667052,-256.371560374927185 178.831266516035328,-256.61550293095712 170,-257 C 170.034568774269616,-258.191674214507714 169.942020221529134,-260.96010582005988 169.974859680528738,-262.950743695348763 C 170.114993097529094,-269.417127302017775 169.719127280797238,-290.499451732102443 170,-297" fill="#eee" shape-rendering="geometricPrecision" stroke="none" />
    <path d="M 0,0 C 36.330149556075476,1.317957837313676 45.988005274222836,-0.455060567304222 136.481701818887046,-0.297126643682196 C 160.585818495726926,-1.064942987778161 188.57815933132207,-1.245680264219895 210,0 C 209.453508078669472,-24.901025431003305 209.806846764625078,-34.731222655573902 209.583312356772552,-84.430090285489783 C 211.250702419781902,-112.049226706142804 205.981141341717489,-179.787303985765533 210,-257 C 208.990502233754086,-257.941721923473267 206.531477520188304,-260.220088430845237 202.171416711003104,-264.807078528476779 C 198.826138487137115,-268.57800054661493 185.540513659770966,-280.186705612856542 170,-297 C 126.600716271019536,-298.662104703214482 119.416496003739326,-297.299987969634799 101.58494458007435,-297.12890285835698 C 53.421087786610585,-297.452733333498088 41.073972078978542,-296.267012501779845 0,-297 C 0.758222337327001,-254.908966950997296 0.94837740478512,-232.842067435595766 0.45124841483086,-180.892686809482058 C 0.831180032267639,-147.50413977835251 -3.327217108550261,-86.919918150052936 0,0" fill="none" filter="url(#drawn20)" shape-rendering="geometricPrecision" stroke="#222" stroke-linecap="round" stroke-linejoin="round" stroke-width="2.000000" />
    <path d="M 210,-257 C 207.57716566147144,-257.107531814071592 207.052107038751984,-257.003929767494924 201.437603846182299,-257.016500158436827 C 185.028654451667052,-256.371560374927185 178.831266516035328,-256.61550293095712 170,-257 C 170.034568774269616,-258.191674214507714 169.942020221529134,-260.96010582005988 169.974859680528738,-262.950743695348763 C 170.114993097529094,-269.417127302017775 169.719127280797238,-290.499451732102443 170,-297" fill="none" filter="url(#drawn20)" shape-rendering="geometricPrecision" stroke="#222" stroke-linecap="round" stroke-linejoin="round" stroke-width="2.000000" />
    <g transform=" translate(105,-315.12890285835698)">
     <text fill="#222" filter="url(#drawn30)" font-family="DejaVu Sans Mono" font-size="30" shape-rendering="geometricPrecision" stroke="#222" stroke-linecap="round" stroke-linejoin="round" stroke-width="3.000000" text-anchor="middle" text-rendering="geometricPrecision">
<tspan x="0" y="11.25"><tspan>Krypttext</tspan></tspan>     </text>
    </g>
   </g>
   <g transform=" translate(-450,0.000000000000014)">
    <path d="M -13.656322541128977,68.654969628226127 C -10.992324306347175,68.678372566634323 -9.525249131950584,68.664103081396533 -6.409353643189243,68.664590138442108 C -1.839535881641474,68.923557520320642 5.322229906705046,68.502659587247578 13.656322541128977,68.654969628226127 C 14.346478934500631,69.874080992845791 15.095838084810607,71.267259189302237 18.058953076384199,76.108314689044661 C 21.177436358893882,81.307019907779377 21.93650067899673,82.35974970233174 24.429640487856684,86.620971280828257 C 27.582407901132282,85.460549584181607 36.290612469271501,81.593068537098091 39.926850093106765,80.096144692224698 C 42.410002518529147,79.076117453569992 42.82144942766022,78.985263480632625 43.975911734725941,78.524640636551752 C 43.067070147719356,74.989299548573499 42.590480157091392,72.931163066301835 42.204376596421397,71.263065130066764 C 41.606163854097339,69.045474098923805 40.982008366510954,66.374135875284381 38.889916311372154,58.202872861178164 C 41.037867342689438,56.067114255102013 42.516344297237659,54.459465476452941 46.13021848977538,51.029238590153014 C 52.614083105157285,45.052106798166911 55.734367360053575,41.374913539130823 58.202872861178164,38.889916311372161 C 64.279676941194481,40.645553213924956 66.633875455458892,41.15005941623194 70.254514036934907,41.937240095230131 C 71.583979153755635,42.225436169354758 75.228590232160812,43.25989706144869 78.524640636551737,43.975911734725948 C 78.850072749708076,43.258594973602833 79.323354290563714,41.788815062997188 80.22710006865583,39.829400402445515 C 85.035412509766346,29.202474472719697 85.169133711326168,28.027925321124268 86.620971280828257,24.429640487856688 C 82.085145818225257,21.903095981242629 81.17979040812348,21.161672474131777 78.158393817387335,19.339757552411161 C 73.745775071081084,16.519226901152422 71.036672444953268,15.03529613761595 68.654969628226127,13.656322541128983 C 68.436967327162549,8.064669315978387 68.398882129345381,4.378092298068045 68.556526603028175,-4.60120914756482 C 68.58061312509065,-8.299341104787626 68.520293784775035,-11.360258984614029 68.654969628226127,-13.656322541128974 C 71.014050965450025,-15.054606629479805 75.256559643524383,-17.768747480306285 78.376913262167307,-19.551068730213636 C 80.933485291985278,-21.198552871874551 82.35470340760962,-21.967071943552586 86.620971280828257,-24.42964048785668 C 84.910284558639873,-29.034317505240438 84.207160813668438,-30.285250367267242 82.676317081173053,-33.939589669136659 C 80.792783209603442,-38.175261310542957 80.263279292181863,-40.094811866128552 78.524640636551752,-43.975911734725919 C 73.416324186164516,-42.335251772746616 72.126288137307043,-42.357977651427682 63.396593391057593,-40.12802499131066 C 62.536624193237081,-39.879605096133851 60.877296154224553,-39.486643178366329 58.202872861178179,-38.88991631137214 C 57.23889701544136,-40.006481585283304 56.04384199144188,-41.182954563749263 53.519217839701916,-43.570204516895757 C 50.135339898255403,-46.957030137104333 47.103148347798566,-50.032178861317021 38.889916311372154,-58.202872861178172 C 39.118626141791275,-59.105408655870711 39.233665179554187,-59.55551338055075 39.394891152505835,-60.244158527809539 C 43.02472173787293,-71.636629859416828 42.699553082352836,-73.488387369492571 43.975911734725933,-78.524640636551752 C 42.093345237607181,-79.440515424143754 40.786419182987686,-79.822809330319004 37.037018584870957,-81.45122238654379 C 31.573946446517624,-83.778585049136097 29.648525647719964,-84.563425999427849 24.429640487856712,-86.620971280828243 C 22.634255432685851,-83.53644354469975 20.353933085963391,-79.901125004043081 19.315272587578029,-78.040667207803153 C 15.762774862406033,-72.022194462479021 14.908799166374248,-70.550120065985794 13.656322541129002,-68.654969628226127 C 8.98809282073516,-68.896183350478609 8.416848472306135,-68.635741876156217 6.469192657384442,-68.614621192948178 C 0.21011733809253,-68.377964713115901 -7.788484494620153,-69.10829244570597 -13.656322541128985,-68.654969628226127 C -14.254430883752546,-69.607888343161662 -15.891855716679409,-72.143034330789618 -16.446123827592562,-73.370450981346337 C -17.859402273675208,-75.908501047628178 -18.952119285130891,-77.370231108565434 -24.429640487856652,-86.620971280828272 C -27.164448071241416,-85.535126013194485 -31.152475024492073,-83.858128705572639 -36.911149365984194,-81.539822412433821 C -40.420684964851581,-80.161745085940964 -42.340273423974551,-79.264761502643111 -43.975911734725955,-78.524640636551737 C -43.583269350421965,-76.764375434966794 -42.489161068673496,-72.386637686699899 -41.500572280681595,-68.461280172271387 C -40.706951156225379,-64.893725448459591 -39.32462736267432,-60.727946811171094 -38.88991631137214,-58.202872861178179 C -40.805439986018875,-56.316118195393905 -47.196824477654239,-49.86471521390083 -53.296544917510552,-43.844870019743603 C -55.460272183969074,-41.681132696987611 -56.79313551183192,-40.484554862551477 -58.202872861178164,-38.889916311372154 C -60.49971997579442,-39.408454535764342 -60.734460683763864,-39.512504975958855 -64.120521066700277,-40.377227585617135 C -70.779057075305857,-41.71797744010599 -72.746977858463524,-42.650898280404256 -78.524640636551723,-43.975911734725976 C -79.9357742089542,-40.773166535333878 -80.82746935834183,-38.299610880970725 -84.079237416188207,-30.271827681505851 C -84.402007576020281,-29.596198509642157 -84.613547372949512,-29.124459755399503 -86.620971280828257,-24.42964048785668 C -82.17978033092173,-22.137736084720714 -80.668265710537042,-20.895647406365285 -76.221350421635663,-18.196933899691004 C -70.691970229307117,-15.319010338638293 -70.21162016596368,-14.574148380529836 -68.654969628226127,-13.656322541129006 C -68.390017292360099,-7.977678107599571 -68.643417011190053,-6.775204844444815 -68.61236631961178,1.258763236572716 C -68.763425967913605,5.689488850216558 -68.525312551458569,10.275226914923808 -68.654969628226127,13.656322541128981 C -71.149210618407722,15.039899379016783 -71.845056978440411,15.566959166872444 -76.747088353510662,18.506850325712882 C -78.905422083838928,19.717902826234674 -82.296502830531182,21.840062561834777 -86.620971280828272,24.429640487856648 C -86.341723937610737,25.040989697552739 -85.911069021000074,26.131455228692403 -84.8657816013461,28.596879125559749 C -82.166450060832716,34.984051592943096 -81.374580518925711,37.076498484205274 -78.524640636551737,43.975911734725948 C -77.33628143760744,43.673577870481445 -74.547284421809238,43.02800888098659 -72.519500188557586,42.43777633856665 C -70.734821832720186,41.886391230073457 -62.294974933957533,39.811220148871058 -58.202872861178179,38.889916311372126 C -56.212345785992781,40.808168250713045 -52.074229916290903,44.757335535296676 -49.318476669756656,47.62442084845042 C -46.801252261969914,50.100027007276729 -43.858397895756305,52.776410269121442 -38.889916311372154,58.202872861178164 C -39.442529750197011,60.157638196567433 -39.496318611312532,60.645732220102239 -39.673171167666425,61.368946142263098 C -40.425306056690566,64.48139496758759 -40.929136759262128,66.711817912697285 -43.975911734725983,78.524640636551709 C -39.944167790913262,80.297199110863986 -39.115287563368867,80.467529776775308 -36.2235390677533,81.66450551399349 C -27.042215921975419,84.910273865418432 -26.896258503808244,85.576083355524062 -24.429640487856684,86.620971280828257 C -23.406415753601252,84.844965806289906 -20.413147369221207,79.132760723752327 -17.116310739689176,74.52721706259905 C -16.304844895592346,72.985774447855334 -15.528131137585767,71.768014965211734 -13.656322541128977,68.654969628226127" fill="#ddd" shape-rendering="geometricPrecision" stroke="none" />
    <path d="M -13.656322541128977,68.654969628226127 C -9.993156690940854,68.813053357978092 -8.781615824871402,68.653977902213526 4.851466116357694,68.712382647595504 C 10.555762578215642,68.370718987437385 11.331432711926645,68.692090844550606 13.656322541128977,68.654969628226127 C 15.24057147142747,71.151306406782481 15.377987665817976,71.548721475424387 16.510083520837888,73.379327118295834 C 18.869048232189538,77.398101553242626 19.396741932313823,78.199561711305407 24.429640487856684,86.620971280828257 C 25.972944908804667,86.059406039504921 26.792473193656203,85.618365393535825 35.749757892638165,81.985789170732744 C 39.250299767397671,80.526150525737179 41.164588358494882,79.774114053330322 43.975911734725941,78.524640636551752 C 42.833074397467435,74.662103851226775 41.560591209763466,70.010834015978674 39.78656791924147,62.255439797744664 C 39.469167184952994,60.98468967804569 39.350248761655671,60.427217785595602 38.889916311372154,58.202872861178164 C 43.223969034502012,53.95993699029038 45.174313522503411,51.997737227125377 49.716673335147604,47.351737435558903 C 51.918837073701887,45.233058191643792 55.901830955344181,41.373077476396617 58.202872861178164,38.889916311372161 C 63.101527968233704,39.987801068223646 66.876912404698501,41.20533671046676 72.543150164732836,42.524408920007502 C 74.973334267956574,43.045204224501838 75.216411656082045,43.160258502357387 78.524640636551737,43.975911734725948 C 78.886939769248983,43.076240786653216 79.53697079150858,41.646214398254763 81.270954515679705,37.457882690411559 C 84.592228042025866,30.134983342490585 85.347623693461486,27.388634154214248 86.620971280828257,24.429640487856688 C 84.818281276697277,23.241211897666204 83.575211455955468,22.61550855815366 76.310718468140024,18.375304547566621 C 73.919881128735952,16.829884273062063 72.342596492091019,16.051215266755843 68.654969628226127,13.656322541128983 C 68.744818917682778,7.020132725405507 68.537701997063138,3.51642409711572 68.72571484639252,-8.011829868226876 C 68.718606533733194,-8.956487639342894 68.702057602342393,-9.599007730878604 68.654969628226127,-13.656322541128974 C 70.331954831342884,-14.808668055282165 71.927714311449435,-15.593708305955369 75.314424049443616,-17.59302132894943 C 77.051608423043433,-18.664103262143993 78.989639450284727,-19.848023615998187 86.620971280828257,-24.42964048785668 C 85.983181171288706,-25.946840838302411 82.528293437004123,-33.498030519583857 80.781772528076587,-38.610564301738982 C 80.026344324149491,-40.253963042231518 79.149178782901103,-42.300189928959306 78.524640636551752,-43.975911734725919 C 76.705250338386477,-43.604081369836663 74.867343422053452,-43.059132725754743 71.380346866947974,-42.254083332872888 C 69.614078875653547,-41.841220537431568 68.277827593332987,-41.39734691353727 58.202872861178179,-38.88991631137214 C 56.619666726901379,-40.280056247125799 56.182614368537635,-40.86029834403449 53.610908259348889,-43.429743169049701 C 50.837157688362275,-46.07885372022109 45.133379689764944,-51.965181223489296 38.889916311372154,-58.202872861178172 C 39.138279145448678,-59.01641909065502 39.260839906459509,-59.834811215437838 40.616903207220197,-64.947190193942717 C 41.014033100331631,-67.09035268011597 42.06760339708957,-70.500941232726845 43.975911734725933,-78.524640636551752 C 34.054687580009663,-82.475341689872437 32.197942938341903,-83.308351678765248 28.728061111735538,-84.759503380052536 C 27.330552242525034,-85.33249404972625 25.906707618531428,-85.937707424910244 24.429640487856712,-86.620971280828243 C 22.668529002846387,-83.791022217769424 19.619904734291218,-78.809076792578338 17.859208269135486,-75.467094108352228 C 17.02140344253155,-73.967851518987118 16.70651452590285,-73.59626902174378 13.656322541129002,-68.654969628226127 C 10.264495530891672,-68.769315857037029 9.183249387011866,-68.657555144830454 7.660105886319577,-68.620270423915557 C 3.916990620345344,-68.670717465226616 -9.031839004215819,-67.927041215185909 -13.656322541128985,-68.654969628226127 C -14.257034370617164,-69.603875407482789 -14.721654657120695,-70.327289050537061 -16.902967673650746,-74.09381159840558 C -19.899408609640716,-78.770462696191316 -21.704710119127633,-82.218549394913467 -24.429640487856652,-86.620971280828272 C -28.146223298574611,-84.882984603307563 -30.88860808230503,-83.889115267418433 -36.143501875022032,-81.723425398550873 C -39.370082154152023,-80.653518662192013 -41.675477273750232,-79.458356689391564 -43.975911734725955,-78.524640636551737 C -43.315026169005939,-76.046956295618855 -43.183702739933167,-75.389206683381303 -41.18535589690822,-67.525562547094168 C -40.440904685710606,-63.885821199343162 -39.337345305677815,-60.222512688385578 -38.88991631137214,-58.202872861178179 C -44.565308335173519,-52.923942602502088 -46.123489487322651,-51.103051110670826 -50.62735836845512,-46.712054336524027 C -52.636348771485217,-44.896936707277746 -53.888998702095044,-43.286543044302142 -58.202872861178164,-38.889916311372154 C -60.604636532955531,-39.45142101932263 -62.966637543881014,-39.974325877411488 -74.042810499847334,-42.835657868419247 C -77.044453530786313,-43.589992663198949 -77.172657630490917,-43.621190593534074 -78.524640636551723,-43.975911734725976 C -79.568746227398123,-41.529306289738152 -79.892742392850153,-40.711643420992843 -80.936068459395813,-38.064436043856141 C -82.553117210529564,-33.913604188729842 -84.964531506448097,-27.829595184736174 -86.620971280828257,-24.42964048785668 C -85.026048954529855,-23.392904781565672 -83.586204966833336,-22.461198673618313 -82.290102614516286,-21.780019230067261 C -74.847589689828268,-17.637200094284623 -71.59894142616902,-15.460744153020164 -68.654969628226127,-13.656322541129006 C -68.609366205873997,-12.393549955294493 -68.592993768312667,-10.764348993790751 -68.632617071229291,-6.736653248201603 C -68.637111756328224,3.690691531770164 -68.746424678131319,8.55659716426417 -68.654969628226127,13.656322541128981 C -69.718942697681726,14.296253561583875 -70.849722708791177,15.019659150361324 -73.096512885438585,16.27545734563865 C -75.143464282152408,17.384009578087706 -78.341447042353934,19.322098264257257 -86.620971280828272,24.429640487856648 C -85.598774860709412,26.768764339231367 -85.209395386032256,27.877124259052344 -83.372559417934596,32.34349629647437 C -81.126577330483386,37.610547311043838 -80.555026570952663,39.042266348687434 -78.524640636551737,43.975911734725948 C -77.915251430975346,43.814221678445868 -76.231434974567094,43.485558153349189 -75.589022800241722,43.256813989884613 C -71.689310941519381,42.132901366543955 -62.851126281289012,40.283236209658853 -58.202872861178179,38.889916311372126 C -55.833749192956475,41.074315209944608 -54.069630299266706,43.292487786699716 -52.220968521744261,44.891364777083389 C -47.31207059380516,49.883735233543646 -45.881840673309121,51.266765997480945 -38.889916311372154,58.202872861178164 C -39.255190538565813,59.699268326519942 -40.126094972364548,62.735800663196279 -41.35543796267806,68.169545593179436 C -41.928480313349958,70.810506719170618 -42.569048251835987,72.814721393201637 -43.975911734725983,78.524640636551709 C -41.290700956066686,79.756557659918755 -40.203035636396464,80.120026991493688 -35.029818960010296,82.227106389481989 C -30.867829199101102,83.862481883558246 -30.213626527116347,84.257282354469083 -24.429640487856684,86.620971280828257 C -22.972034463781572,84.012376719819116 -21.636031698225306,81.644853184270119 -20.387117437412005,79.950938718283638 C -17.867386653218659,75.068613979519043 -15.057321591488503,71.363110120934849 -13.656322541128977,68.654969628226127" fill="none" filter="url(#drawn20)" shape-rendering="geometricPrecision" stroke="#222" stroke-linecap="round" stroke-linejoin="round" stroke-width="2.000000" />
    <text fill="#222" filter="url(#drawn35)" font-family="DejaVu Sans Mono" font-size="35" shape-rendering="geometricPrecision" stroke="#222" stroke-linecap="round" stroke-linejoin="round" stroke-width="3.500000" text-anchor="middle" text-rendering="geometricPrecision">
<tspan x="0" y="13.125"><tspan>SYM</tspan></tspan>    </text>
   </g>
   <g transform=" translate(450,0.000000000000014)">
    <path d="M -13.656322541128977,68.654969628226127 C -11.96860620825502,68.737570224680837 -11.19819819011896,68.681004283468909 -10.189948104759933,68.629288716340341 C -0.380212602846342,68.409884619199033 7.02267014412644,68.724012523186019 13.656322541128977,68.654969628226127 C 14.625502574991026,70.257837595276868 15.815654675013253,72.284930747909812 21.917009450790015,82.719467211008009 C 22.248642920757298,83.22846675827202 22.530783928189056,83.612007937893637 24.429640487856684,86.620971280828257 C 27.13318492360597,85.666769665918238 27.373664846573,85.376696975721487 30.863386355695486,83.912639848844137 C 34.741846980720759,82.523862662339937 35.867804465956262,81.771087753479748 43.975911734725941,78.524640636551752 C 43.140360412798614,74.262472879824585 42.426854303478507,72.327302810072865 42.067822465741131,70.61457562102153 C 40.32048901852,65.023657551719481 40.232629487758416,63.399114371239705 38.889916311372154,58.202872861178164 C 42.92316884063996,54.112381977844173 46.181116546043903,50.831539444029609 51.587081199691127,45.561329036688718 C 53.142144751944798,43.808145705258582 56.413804592518268,40.190387441946172 58.202872861178164,38.889916311372161 C 58.883201823784717,39.081268483048419 60.23165902820557,39.342709646330107 61.077490878664264,39.615050934503614 C 71.483282447296972,41.790850308902186 72.965715781865654,42.6977029213921 78.524640636551737,43.975911734725948 C 79.166069817054776,42.585892140337293 81.394758404605497,37.163935318823448 83.766701863130606,31.399881603605827 C 85.142971440918956,28.191750278362093 85.266390125838541,27.798640306338555 86.620971280828257,24.429640487856688 C 85.229151007531001,23.614295498241287 84.578008313946896,23.200886023319757 82.723218771001712,22.107446639749039 C 76.029167419842665,18.382540010443282 74.120457531489109,17.056661384566144 68.654969628226127,13.656322541128983 C 68.670270333717454,12.017527373467971 68.407001388958392,6.768125888932309 68.640622345934801,4.260652044638299 C 68.674836895266893,0.742394566602192 68.709780333503261,-2.967489438371674 68.654969628226127,-13.656322541128974 C 70.227140006064161,-14.540020328437192 72.418590887315787,-16.072112724368701 75.911382738323553,-18.052202474461755 C 79.358243822084901,-19.973860073072512 83.952281151348217,-23.03469922399027 86.620971280828257,-24.42964048785668 C 85.33399690042566,-27.29549977363143 84.31360793494477,-30.707784900339103 83.016395160446805,-33.351348405467135 C 81.613043965171329,-36.371796444647892 81.488112597902884,-36.908729952702224 78.524640636551752,-43.975911734725919 C 77.054689907502279,-43.590965108585337 74.78648229898495,-43.098394553905891 70.075559198667534,-41.861966606438607 C 66.578004893990496,-41.022761491197812 63.864624593125697,-40.425215001535634 58.202872861178179,-38.88991631137214 C 53.741890326419622,-43.492253301295442 50.389122453337833,-46.646989404303923 45.57148268653502,-51.387973018584979 C 44.773891966871965,-52.150492500856153 44.24269031373678,-52.720761840212248 38.889916311372154,-58.202872861178172 C 39.263653528605502,-59.603381663620368 39.662348084591251,-61.683792935082323 40.078144366586244,-63.078823298183096 C 40.636072387908527,-65.354614363781366 42.748759363782256,-73.853748312522143 43.975911734725933,-78.524640636551752 C 41.113287121520386,-79.761663640884393 37.98355049945296,-80.948427853847889 34.007968119888801,-82.615656241474483 C 32.810870227315924,-83.139474440841155 29.475498411941054,-84.545055635445195 24.429640487856712,-86.620971280828243 C 22.864680742742848,-83.696464773248906 21.750760726579827,-82.042998894624617 18.799698167014263,-77.153752198681914 C 17.494587976528603,-74.899681582094914 16.120958255984593,-72.666318603652101 13.656322541129002,-68.654969628226127 C 13.216323031708695,-68.635771362344329 12.609982908792267,-68.671837008531995 9.76015079573261,-68.642334593499356 C -2.70648471843065,-68.142182067200125 -6.409675708222172,-68.55298676011661 -13.656322541128985,-68.654969628226127 C -18.714634454063656,-75.971812443766296 -20.10423086517099,-79.521157948507138 -21.993344340987701,-82.488256972572728 C -22.471969931498499,-83.215058883139179 -22.630111982726262,-83.598780183416991 -24.429640487856652,-86.620971280828272 C -26.183928871217503,-85.843792827465762 -26.702671599540338,-85.673320999744078 -28.478065420875492,-84.91076844134551 C -38.894174029537936,-80.370834692925996 -40.054191685496548,-80.215717140998933 -43.975911734725955,-78.524640636551737 C -42.633620945333689,-74.100734875145619 -41.270630147547024,-69.345704632574282 -40.784217131400553,-66.217026423296304 C -39.970176450458339,-63.442520905462985 -39.757130189529057,-61.681634822652271 -38.88991631137214,-58.202872861178179 C -39.546415181563376,-57.488804038003373 -40.884873901074947,-56.238857368523341 -42.895175893589226,-54.248620453877145 C -47.547854859642676,-49.380201770261429 -51.408236681055271,-45.808311537831777 -58.202872861178164,-38.889916311372154 C -59.044400831476025,-39.060905141342722 -61.953665694006908,-39.868015372011321 -63.151212952311596,-40.113390352996014 C -64.931298641785432,-40.60662618067645 -71.298024930382084,-42.387702580041228 -78.524640636551723,-43.975911734725976 C -79.778763626698733,-41.064898281088212 -83.072182095868783,-33.587698508810078 -84.071784349929885,-30.396568296565977 C -84.561927520196321,-29.092235321141622 -85.530135545401407,-26.93068126758406 -86.620971280828257,-24.42964048785668 C -82.065452955752917,-21.796586020808331 -80.030887426490821,-20.312414256270095 -76.615604577674461,-18.286931390666044 C -74.972858472949682,-17.410975630466311 -71.234314539953516,-15.068555147889796 -68.654969628226127,-13.656322541129006 C -68.512143729267521,-6.722357997046033 -68.47231685941027,-5.024516264715898 -68.51747811330857,6.109382186957613 C -68.531643122457638,7.16757607491026 -68.456125878511273,10.110035032955789 -68.654969628226127,13.656322541128981 C -73.533483849776388,16.652003505315719 -74.49097114580924,17.16301835473816 -76.879089486878613,18.605567404990765 C -80.363144465412063,20.46457312972916 -80.616493075532446,20.881753186502245 -86.620971280828272,24.429640487856648 C -84.768843984813458,29.386082911831345 -82.271191459499946,35.387649020143904 -80.319867755343282,39.994531827793814 C -79.648431783294157,41.435929716122068 -79.575341605304942,41.66357326239509 -78.524640636551737,43.975911734725948 C -77.097064464007005,43.552116140223923 -74.656673174352363,43.022872680066577 -67.867385257322638,41.295916765028899 C -65.326311085042406,40.643222840103981 -63.516372596352333,40.225915078199925 -58.202872861178179,38.889916311372126 C -57.292420893265792,39.881469542554342 -54.812730936518378,42.606522291385183 -51.620073134499812,45.377132749958513 C -48.680963754191446,48.217569323045041 -45.94574793106483,51.053525769541309 -38.889916311372154,58.202872861178164 C -39.801425266994713,61.168556150155588 -39.867326924047248,62.218220564060566 -41.405443366589573,68.079633710269874 C -41.989962666317567,70.203828318186837 -43.122636886296299,75.60682206915844 -43.975911734725983,78.524640636551709 C -41.811970006017035,79.396917252192949 -38.512673435220407,80.724382001374252 -37.201316360841382,81.308202955942633 C -29.976734047599145,84.949776250637157 -28.705615440961086,84.811919316290272 -24.429640487856684,86.620971280828257 C -24.010918274384757,85.966732560132016 -23.006368099011382,83.911368983013162 -21.79395342690206,82.162769267166212 C -18.479849932234771,76.311194478280555 -15.973427905066789,72.283095428208213 -13.656322541128977,68.654969628226127" fill="#ddd" shape-rendering="geometricPrecision" stroke="none" />
    <path d="M -13.656322541128977,68.654969628226127 C -3.86249068715634,69.131874277239575 0.749117549236893,68.745321726354206 5.202136058763793,68.649080349516396 C 8.41049007219751,68.537824897771287 10.990766308724387,68.645790124580998 13.656322541128977,68.654969628226127 C 13.932909670509737,69.064631089641566 14.093845955295643,69.388688857974842 16.000063427242537,72.477718285178284 C 17.72742660317369,75.057854128763864 22.08733185564353,82.741095500845162 24.429640487856684,86.620971280828257 C 25.887516967062293,86.030182575754026 29.834991401255444,84.246097381757792 39.434625628993835,80.435497281364164 C 40.78388450973052,79.853120150575435 42.648147503467627,79.098417729307343 43.975911734725941,78.524640636551752 C 43.272639921498097,75.044019406941487 42.476229465466538,72.51234817624858 41.278251901300948,67.707598260349613 C 39.97843991356941,62.93987580405576 39.632862862211759,60.937728090567461 38.889916311372154,58.202872861178164 C 39.186756200876815,57.912983689049426 39.682604726020379,57.462473420856782 41.452653561838574,55.693086715891397 C 43.451749999884647,53.722967973673235 50.671629808980526,47.114825430302609 58.202872861178164,38.889916311372161 C 59.022829675007138,39.051083613161509 62.031657770312279,39.784738186293566 64.626524202694711,40.483480640550326 C 68.477572580370861,41.342417258862064 70.181896278890946,41.97934733446278 78.524640636551737,43.975911734725948 C 80.125829674007662,40.327719801718999 80.877264673016029,38.219188354371475 82.596297959122666,34.319247458536069 C 83.451272315636274,32.245997826954252 84.967391840572304,28.839508446218233 86.620971280828257,24.429640487856688 C 84.426294549288869,23.044554928920352 83.857145002146723,22.802877410490115 82.937821801485313,22.259314894481349 C 76.588288305286611,18.357593712793712 72.075400563506676,15.61617170501091 68.654969628226127,13.656322541128983 C 68.708528689419055,10.438018951354829 68.641845151379329,9.809939593915811 68.654950045415575,4.787162386811117 C 68.819834079590422,0.332208025360483 68.48518185490363,-8.935271766991077 68.654969628226127,-13.656322541128974 C 70.014365184547927,-14.504877651039617 73.283399190169021,-16.78010383069827 76.145348534648264,-18.238484028299009 C 79.03305654072264,-20.095080435431946 80.710961031975998,-20.8105956941221 86.620971280828257,-24.42964048785668 C 86.023506818688432,-25.753304442216773 85.47638781096471,-27.048266971554327 83.884727947748971,-30.934323390613404 C 82.515654712773639,-34.740486760169198 80.419150470432314,-39.844313195567395 78.524640636551752,-43.975911734725919 C 75.574464049520699,-43.073822321277198 68.035558792171017,-40.958754256977471 64.643747961028851,-40.396798505435925 C 63.987663761677119,-40.226892713522844 59.870110674023636,-39.124874671844388 58.202872861178179,-38.88991631137214 C 57.744530197556564,-39.343290162798695 57.281887168613743,-39.816921792414604 55.096372989263138,-41.982790556606055 C 50.279942016718003,-46.972666020901144 48.993251012386054,-48.073648489687905 38.889916311372154,-58.202872861178172 C 40.126512483900548,-63.151744742083238 40.384937963471693,-64.590177428613202 42.446064657966097,-72.665790861287448 C 42.829051475958877,-74.172090470254474 43.048301365829978,-74.934413822105228 43.975911734725933,-78.524640636551752 C 40.614966101114227,-79.73796260979104 40.110386568523218,-80.122117643876351 38.757319868557893,-80.671177194250987 C 34.825866269669554,-82.155282869893369 32.414825294752838,-83.352910596628149 24.429640487856712,-86.620971280828243 C 21.767832729952847,-81.53475007929886 20.67673532549852,-80.396574424554089 17.513730024212059,-75.206444914018007 C 15.997206979086215,-72.537423809876458 14.925853930595839,-70.532502613877739 13.656322541129002,-68.654969628226127 C 12.339630939996477,-68.628186459533339 9.598683154883995,-68.746162846294908 5.1183820447151,-68.695390657843561 C -2.796593177895388,-68.997036662075303 -5.388295247657495,-68.617798940588756 -13.656322541128985,-68.654969628226127 C -13.930749906534631,-69.075418316953957 -14.262635104537452,-69.719760331713118 -15.561350431354322,-71.801216942212747 C -17.079546899493547,-74.07991852162624 -20.30865147357623,-80.485258277383366 -24.429640487856652,-86.620971280828272 C -25.329103347228248,-86.303837321691745 -26.485124661409252,-85.75630655169023 -27.732038690280348,-85.27102966113118 C -31.416942331498706,-83.759802679289194 -36.431141497576199,-81.730455869702269 -43.975911734725955,-78.524640636551737 C -43.535146591967582,-76.823242464518955 -43.004774466471432,-74.679070114166535 -40.857113706481101,-65.851591838561589 C -39.813639531787949,-62.341664189503902 -39.834889726124104,-61.800301593606463 -38.88991631137214,-58.202872861178179 C -40.590594633970383,-56.521298224945433 -43.410207551718145,-53.778834990091873 -46.636929446796692,-50.392033387277586 C -51.306518613409864,-45.271744140447232 -55.280212573522213,-41.751677847389729 -58.202872861178164,-38.889916311372154 C -61.078663801982522,-39.668429497387194 -65.11483854964159,-40.349047187240821 -67.053415025952077,-41.072427914444042 C -69.402884451142086,-41.734116078590432 -71.021026353842188,-42.079752196390565 -78.524640636551723,-43.975911734725976 C -79.718457591702133,-41.502922173060576 -79.896779993573432,-40.571452138852791 -80.661690549508137,-38.760609121791866 C -83.075115039659067,-33.243220036910117 -83.772333311500716,-31.131482528658051 -86.620971280828257,-24.42964048785668 C -83.632089853928377,-22.531760542956569 -79.831405692142326,-20.106636290584493 -74.938416470593879,-17.47679270268112 C -71.623636006016596,-15.59934966813805 -70.497620864008681,-14.728707016940421 -68.654969628226127,-13.656322541129006 C -68.497825818300271,-3.961735189097361 -68.610175622815348,-3.552645972972084 -68.606981872303678,-0.633931981808621 C -68.476959707297624,1.862398317724552 -68.857110001201349,7.636179093189315 -68.654969628226127,13.656322541128981 C -71.400530143623044,15.315341553275669 -71.962707647995884,15.645374112046721 -76.524225006881224,18.363903136892411 C -78.127515542259189,19.329018143678955 -81.511068477989582,21.432385647441404 -86.620971280828272,24.429640487856648 C -85.570688009655157,27.110217554992229 -84.126954562908736,30.31968945842112 -81.644909950186047,36.577460153987502 C -80.564896984404399,38.888868461810915 -80.325680528242131,39.684265844388797 -78.524640636551737,43.975911734725948 C -70.056371937779573,42.192249533729651 -67.834670731206231,41.310998841221867 -63.656096814870175,40.213387511044189 C -61.105100524907961,39.717917334130867 -59.739408867663464,39.176714665851748 -58.202872861178179,38.889916311372126 C -56.856595827078849,40.157362211229838 -53.416669312746663,43.165181320606123 -46.450753597656423,50.574163536548255 C -44.81063243580148,52.368471059834775 -42.427345583667169,54.534984753450289 -38.889916311372154,58.202872861178164 C -39.308293116758634,59.850503567537103 -39.398911956299052,60.183962520174767 -39.779382560455097,61.665017216463575 C -40.95286907661918,66.569491174869384 -41.487456539030582,68.704912927013424 -43.975911734725983,78.524640636551709 C -42.982788798054045,78.983725626699083 -42.152374987970852,79.338536954708616 -35.7644164662021,82.003738993184555 C -34.241246205352788,82.676904828009881 -32.636016878973109,83.440579214565716 -24.429640487856684,86.620971280828257 C -22.551249610573652,83.094198655557136 -21.61443387059559,81.920693377533198 -20.231608005245196,79.52932342134504 C -19.518184499069804,78.404200428594976 -16.462473767017169,73.473282899317141 -13.656322541128977,68.654969628226127" fill="none" filter="url(#drawn20)" shape-rendering="geometricPrecision" stroke="#222" stroke-linecap="round" stroke-linejoin="round" stroke-width="2.000000" />
    <text fill="#222" filter="url(#drawn35)" font-family="DejaVu Sans Mono" font-size="35" shape-rendering="geometricPrecision" stroke="#222" stroke-linecap="round" stroke-linejoin="round" stroke-width="3.500000" text-anchor="middle" text-rendering="geometricPrecision">
<tspan x="0" y="13.125"><tspan>SYM</tspan></tspan>    </text>
   </g>
   <g transform=" translate(-772,-72)">
    <path d="M81.122,69.1218L42.4082,98.3608l4.3132,5.207l4.201-3.1722l5.7442,7.2874l-4.6296,3.9438 c-6.9938-0.7814-7.8876,6.173-7.8876,6.173l-4.3724,3.5152l-6.3444-7.7162l5.3156-4.4582L34.64,104.24l-5.473,4.2264 l-7.3646-9.0796l52.358-39.5576M0.000000,0.000000M144.000000,144.000000" fill="none" filter="url(#drawn40)" shape-rendering="geometricPrecision" stroke="#222" stroke-linecap="round" stroke-linejoin="round" stroke-width="4.000000" />
    <path d="M116.74,49.78c-2.16-2.2-7.42-5.66-9.24-8.14 c-1.82-2.46-3.56-8.46-5.02-11.16c-4.04-7.52-14.84-8.32-21.7-3.26l-2.52,1.88c-6.86,5.06-9.52,15.88-3.26,21.68 c2.3,2.1398,7.62,5.6398,9.48,8.16c1.84,2.5,3.44,8.34,4.78,11.14c3.7,7.68,14.84,8.32,21.7,3.26l2.52-1.88 C120.34,66.4,122.74,55.84,116.74,49.78z M112.2,60.72c-0.86,5.38-5.92,9.04-11.32,8.18C95.5,68.04,92.4,63.04,92.7,57.6 c0.34-6.32-5.06-6.24-5.06-6.24c-5.38-0.86-9.06-5.94-8.2-11.32c0.88-5.38,5.94-9.04,11.32-8.18s9.06,5.92,8.18,11.32 c0,0-1.42,6.04,5.08,6.22C109.46,49.56,113.06,55.34,112.2,60.72zM0.000000,0.000000M144.000000,144.000000" fill="none" filter="url(#drawn40)" shape-rendering="geometricPrecision" stroke="#222" stroke-linecap="round" stroke-linejoin="round" stroke-width="4.000000" />
    <g transform=" translate(72,147.599999999999994)">
     <text fill="#222" filter="url(#drawn8)" font-family="DejaVu Sans Mono" font-size="30" shape-rendering="geometricPrecision" stroke="#222" stroke-linecap="round" stroke-linejoin="round" stroke-width="0.800000" text-anchor="middle" text-rendering="geometricPrecision">
<tspan x="0" y="11.25"><tspan>Schlüssel</tspan></tspan>     </text>
    </g>
   </g>
   <g transform=" translate(-772,-72)" />
   <g transform=" translate(628,-72)">
    <path d="M81.122,69.1218L42.4082,98.3608l4.3132,5.207l4.201-3.1722l5.7442,7.2874l-4.6296,3.9438 c-6.9938-0.7814-7.8876,6.173-7.8876,6.173l-4.3724,3.5152l-6.3444-7.7162l5.3156-4.4582L34.64,104.24l-5.473,4.2264 l-7.3646-9.0796l52.358-39.5576M0.000000,0.000000M144.000000,144.000000" fill="none" filter="url(#drawn40)" shape-rendering="geometricPrecision" stroke="#222" stroke-linecap="round" stroke-linejoin="round" stroke-width="4.000000" />
    <path d="M116.74,49.78c-2.16-2.2-7.42-5.66-9.24-8.14 c-1.82-2.46-3.56-8.46-5.02-11.16c-4.04-7.52-14.84-8.32-21.7-3.26l-2.52,1.88c-6.86,5.06-9.52,15.88-3.26,21.68 c2.3,2.1398,7.62,5.6398,9.48,8.16c1.84,2.5,3.44,8.34,4.78,11.14c3.7,7.68,14.84,8.32,21.7,3.26l2.52-1.88 C120.34,66.4,122.74,55.84,116.74,49.78z M112.2,60.72c-0.86,5.38-5.92,9.04-11.32,8.18C95.5,68.04,92.4,63.04,92.7,57.6 c0.34-6.32-5.06-6.24-5.06-6.24c-5.38-0.86-9.06-5.94-8.2-11.32c0.88-5.38,5.94-9.04,11.32-8.18s9.06,5.92,8.18,11.32 c0,0-1.42,6.04,5.08,6.22C109.46,49.56,113.06,55.34,112.2,60.72zM0.000000,0.000000M144.000000,144.000000" fill="none" filter="url(#drawn40)" shape-rendering="geometricPrecision" stroke="#222" stroke-linecap="round" stroke-linejoin="round" stroke-width="4.000000" />
    <g transform=" translate(72,147.599999999999994)">
     <text fill="#222" filter="url(#drawn8)" font-family="DejaVu Sans Mono" font-size="30" shape-rendering="geometricPrecision" stroke="#222" stroke-linecap="round" stroke-linejoin="round" stroke-width="0.800000" text-anchor="middle" text-rendering="geometricPrecision">
<tspan x="0" y="11.25"><tspan>Schlüssel</tspan></tspan>     </text>
    </g>
   </g>
   <g transform=" translate(628,-72)" />
   <path d="M -625,0 L -550,0M-737.500000,-112.500000M-437.500000,112.500000" fill="none" filter="url(#drawn40)" shape-rendering="geometricPrecision" stroke="#222" stroke-linecap="round" stroke-linejoin="round" stroke-width="4.000000" transform=" translate(-1.142857142857143,-1.142857142857143)" />
   <g transform=" translate(-550,0)">
    <path d="M 0,-5 L -7,0 L 0,5 L -7,0 L 0,-5 zM-737.500000,-112.500000M-437.500000,112.500000" fill="none" filter="url(#drawn40)" shape-rendering="geometricPrecision" stroke="#222" stroke-linecap="round" stroke-linejoin="round" stroke-width="4.000000" transform=" rotate(180) translate(-1.142857142857143,-1.142857142857143)" />
   </g>
   <path d="M -450,-150 L -450,-100M-525.000000,-225.000000M-375.000000,-25.000000" fill="none" filter="url(#drawn40)" shape-rendering="geometricPrecision" stroke="#222" stroke-linecap="round" stroke-linejoin="round" stroke-width="4.000000" transform=" translate(-1.142857142857143,-1.142857142857143)" />
   <g transform=" translate(-450,-100)">
    <path d="M 0,-5 L -7,0 L 0,5 L -7,0 L 0,-5 zM-525.000000,-225.000000M-375.000000,-25.000000" fill="none" filter="url(#drawn40)" shape-rendering="geometricPrecision" stroke="#222" stroke-linecap="round" stroke-linejoin="round" stroke-width="4.000000" transform=" rotate(270.000000002572392) translate(-1.142857142857143,-1.142857142857143)" />
   </g>
   <path d="M -450,100 L -450,150M-525.000000,25.000000M-375.000000,225.000000" fill="none" filter="url(#drawn40)" shape-rendering="geometricPrecision" stroke="#222" stroke-linecap="round" stroke-linejoin="round" stroke-width="4.000000" transform=" translate(-1.142857142857143,-1.142857142857143)" />
   <g transform=" translate(-450,150)">
    <path d="M 0,-5 L -7,0 L 0,5 L -7,0 L 0,-5 zM-525.000000,25.000000M-375.000000,225.000000" fill="none" filter="url(#drawn40)" shape-rendering="geometricPrecision" stroke="#222" stroke-linecap="round" stroke-linejoin="round" stroke-width="4.000000" transform=" rotate(270.000000002572392) translate(-1.142857142857143,-1.142857142857143)" />
   </g>
   <path d="M 625,0 L 550,0M437.500000,-112.500000M737.500000,112.500000" fill="none" filter="url(#drawn40)" shape-rendering="geometricPrecision" stroke="#222" stroke-linecap="round" stroke-linejoin="round" stroke-width="4.000000" transform=" translate(-1.142857142857143,-1.142857142857143)" />
   <g transform=" translate(550,0)">
    <path d="M 0,-5 L -7,0 L 0,5 L -7,0 L 0,-5 zM437.500000,-112.500000M737.500000,112.500000" fill="none" filter="url(#drawn40)" shape-rendering="geometricPrecision" stroke="#222" stroke-linecap="round" stroke-linejoin="round" stroke-width="4.000000" transform=" rotate(360.000000005144727) translate(-1.142857142857143,-1.142857142857143)" />
   </g>
   <path d="M 450,-150 L 450,-100M375.000000,-225.000000M525.000000,-25.000000" fill="none" filter="url(#drawn40)" shape-rendering="geometricPrecision" stroke="#222" stroke-linecap="round" stroke-linejoin="round" stroke-width="4.000000" transform=" translate(-1.142857142857143,-1.142857142857143)" />
   <g transform=" translate(450,-100)">
    <path d="M 0,-5 L -7,0 L 0,5 L -7,0 L 0,-5 zM375.000000,-225.000000M525.000000,-25.000000" fill="none" filter="url(#drawn40)" shape-rendering="geometricPrecision" stroke="#222" stroke-linecap="round" stroke-linejoin="round" stroke-width="4.000000" transform=" rotate(270.000000002572392) translate(-1.142857142857143,-1.142857142857143)" />
   </g>
   <path d="M 450,100 L 450,150M375.000000,25.000000M525.000000,225.000000" fill="none" filter="url(#drawn40)" shape-rendering="geometricPrecision" stroke="#222" stroke-linecap="round" stroke-linejoin="round" stroke-width="4.000000" transform=" translate(-1.142857142857143,-1.142857142857143)" />
   <g transform=" translate(450,150)">
    <path d="M 0,-5 L -7,0 L 0,5 L -7,0 L 0,-5 zM375.000000,25.000000M525.000000,225.000000" fill="none" filter="url(#drawn40)" shape-rendering="geometricPrecision" stroke="#222" stroke-linecap="round" stroke-linejoin="round" stroke-width="4.000000" transform=" rotate(270.000000002572392) translate(-1.142857142857143,-1.142857142857143)" />
   </g>
   <path d="M -300,350 C -200,350 -200,350 -100,175M-600.000000,-125.000000M200.000000,650.000000" fill="none" filter="url(#drawn40)" shape-rendering="geometricPrecision" stroke="#222" stroke-linecap="round" stroke-linejoin="round" stroke-width="4.000000" transform=" translate(-1.142857142857143,-1.142857142857143)" />
   <g transform=" translate(-100,175)">
    <path d="M 0,-5 L -7,0 L 0,5 L -7,0 L 0,-5 zM-462.500000,-87.500000M162.500000,612.500000" fill="none" filter="url(#drawn40)" shape-rendering="geometricPrecision" stroke="#222" stroke-linecap="round" stroke-linejoin="round" stroke-width="4.000000" transform=" rotate(119.744881295219983) translate(-1.142857142857143,-1.142857142857143)" />
   </g>
   <path d="M 100,-175 C 200,-350 200,-350 300,-350M-200.000000,-650.000000M600.000000,125.000000" fill="none" filter="url(#drawn40)" shape-rendering="geometricPrecision" stroke="#222" stroke-linecap="round" stroke-linejoin="round" stroke-width="4.000000" transform=" translate(-1.142857142857143,-1.142857142857143)" />
   <g transform=" translate(300,-350)">
    <path d="M 0,-5 L -7,0 L 0,5 L -7,0 L 0,-5 zM50.000000,-500.000000M450.000000,-200.000000" fill="none" filter="url(#drawn40)" shape-rendering="geometricPrecision" stroke="#222" stroke-linecap="round" stroke-linejoin="round" stroke-width="4.000000" transform=" rotate(180) translate(-1.142857142857143,-1.142857142857143)" />
   </g>
  </g>
 </g>
</svg>
